[
  {
    "pk": 30, 
    "model": "dashboard.section", 
    "fields": {
      "is_enabled": true, 
      "description": "", 
      "parent": 1, 
      "title": "Cart Items", 
      "ordering": 1, 
      "slug": "store-cart-items"
    }
  }, 
  {
    "pk": 25, 
    "model": "dashboard.section", 
    "fields": {
      "is_enabled": true, 
      "description": "", 
      "parent": 5, 
      "title": "Overview", 
      "ordering": 1, 
      "slug": "re-overview"
    }
  }, 
  {
    "pk": 16, 
    "model": "dashboard.section", 
    "fields": {
      "is_enabled": true, 
      "description": "Enter new events", 
      "parent": 4, 
      "title": "Events", 
      "ordering": 1, 
      "slug": "events-list"
    }
  }, 
  {
    "pk": 10, 
    "model": "dashboard.section", 
    "fields": {
      "is_enabled": true, 
      "description": "Enter or change products in the database.", 
      "parent": 2, 
      "title": "Products", 
      "ordering": 1, 
      "slug": "products-list"
    }
  }, 
  {
    "pk": 1, 
    "model": "dashboard.section", 
    "fields": {
      "is_enabled": true, 
      "description": "Check order history, order status's. Order Payments and Cart Items.", 
      "parent": null, 
      "title": "Store", 
      "ordering": 1, 
      "slug": "store"
    }
  }, 
  {
    "pk": 31, 
    "model": "dashboard.section", 
    "fields": {
      "is_enabled": true, 
      "description": "", 
      "parent": 1, 
      "title": "Order Line Items", 
      "ordering": 2, 
      "slug": "store-order-line-items"
    }
  }, 
  {
    "pk": 11, 
    "model": "dashboard.section", 
    "fields": {
      "is_enabled": true, 
      "description": "View orders and status's here.", 
      "parent": 2, 
      "title": "Product Orders", 
      "ordering": 2, 
      "slug": "products-orders"
    }
  }, 
  {
    "pk": 2, 
    "model": "dashboard.section", 
    "fields": {
      "is_enabled": true, 
      "description": "Add and modify products, categories, discounts, etc...", 
      "parent": null, 
      "title": "Products", 
      "ordering": 2, 
      "slug": "products"
    }
  }, 
  {
    "pk": 26, 
    "model": "dashboard.section", 
    "fields": {
      "is_enabled": true, 
      "description": "", 
      "parent": 5, 
      "title": "New Users Per Day", 
      "ordering": 2, 
      "slug": "re-new-users-per-day"
    }
  }, 
  {
    "pk": 17, 
    "model": "dashboard.section", 
    "fields": {
      "is_enabled": false, 
      "description": "Check on current ticket purchase's and ticket holders for specific events.", 
      "parent": 4, 
      "title": "Tickets", 
      "ordering": 2, 
      "slug": "events-tickets"
    }
  }, 
  {
    "pk": 3, 
    "model": "dashboard.section", 
    "fields": {
      "is_enabled": true, 
      "description": "Send email to your entire team or selected members based on your criteria", 
      "parent": null, 
      "title": "Communications", 
      "ordering": 3, 
      "slug": "communications"
    }
  }, 
  {
    "pk": 27, 
    "model": "dashboard.section", 
    "fields": {
      "is_enabled": true, 
      "description": "", 
      "parent": 5, 
      "title": "Sales by Consultants", 
      "ordering": 3, 
      "slug": "re-sales-by-consultants"
    }
  }, 
  {
    "pk": 32, 
    "model": "dashboard.section", 
    "fields": {
      "is_enabled": true, 
      "description": "", 
      "parent": 1, 
      "title": "Order Payment Authorizations\t", 
      "ordering": 3, 
      "slug": "store-order-payment-authorizations"
    }
  }, 
  {
    "pk": 12, 
    "model": "dashboard.section", 
    "fields": {
      "is_enabled": false, 
      "description": "Change a current subscription in the system.", 
      "parent": 2, 
      "title": "Product Subscriptions", 
      "ordering": 3, 
      "slug": "products-subscriptions"
    }
  }, 
  {
    "pk": 18, 
    "model": "dashboard.section", 
    "fields": {
      "is_enabled": false, 
      "description": "Add Seating Colors for use with your seating charts.", 
      "parent": 4, 
      "title": "Seating Colors", 
      "ordering": 3, 
      "slug": "events-seating"
    }
  }, 
  {
    "pk": 4, 
    "model": "dashboard.section", 
    "fields": {
      "is_enabled": true, 
      "description": "Add meetings to your site. View ticket information for all meetings and mange the checkin procdure for users..", 
      "parent": null, 
      "title": "Events & Parties", 
      "ordering": 4, 
      "slug": "events"
    }
  }, 
  {
    "pk": 33, 
    "model": "dashboard.section", 
    "fields": {
      "is_enabled": true, 
      "description": "", 
      "parent": 1, 
      "title": "Order Payments", 
      "ordering": 4, 
      "slug": "store-order-payments"
    }
  }, 
  {
    "pk": 13, 
    "model": "dashboard.section", 
    "fields": {
      "is_enabled": true, 
      "description": "Add product catagories to the database.", 
      "parent": 2, 
      "title": "Product Categories", 
      "ordering": 4, 
      "slug": "products-categories"
    }
  }, 
  {
    "pk": 19, 
    "model": "dashboard.section", 
    "fields": {
      "is_enabled": false, 
      "description": "Create seating charts for specific events.", 
      "parent": 4, 
      "title": "Seating Charts", 
      "ordering": 4, 
      "slug": "events-seating-charts"
    }
  }, 
  {
    "pk": 28, 
    "model": "dashboard.section", 
    "fields": {
      "is_enabled": true, 
      "description": "", 
      "parent": 5, 
      "title": "Fast Start", 
      "ordering": 4, 
      "slug": "re-faststart"
    }
  }, 
  {
    "pk": 29, 
    "model": "dashboard.section", 
    "fields": {
      "is_enabled": true, 
      "description": "", 
      "parent": 5, 
      "title": "Top Recruiter", 
      "ordering": 5, 
      "slug": "re-top-recruiter"
    }
  }, 
  {
    "pk": 30, 
    "model": "dashboard.section", 
    "fields": {
      "is_enabled": true, 
      "description": "", 
      "parent": 5, 
      "title": "Members Per State", 
      "ordering": 5, 
      "slug": "re-members-per-state"
    }
  }, 
  {
    "pk": 14, 
    "model": "dashboard.section", 
    "fields": {
      "is_enabled": true, 
      "description": "Add discounts to products are enter speical pricing codes.", 
      "parent": 2, 
      "title": "Discounts", 
      "ordering": 5, 
      "slug": "products-discounts"
    }
  }, 
  {
    "pk": 20, 
    "model": "dashboard.section", 
    "fields": {
      "is_enabled": false, 
      "description": "Calculate costs and generate commissions for IBO's.", 
      "parent": 4, 
      "title": "Generate Commissions", 
      "ordering": 5, 
      "slug": "events-commissions"
    }
  }, 
  {
    "pk": 34, 
    "model": "dashboard.section", 
    "fields": {
      "is_enabled": true, 
      "description": "", 
      "parent": 1, 
      "title": "Product Orders", 
      "ordering": 5, 
      "slug": "store-product-orders"
    }
  }, 
  {
    "pk": 5, 
    "model": "dashboard.section", 
    "fields": {
      "is_enabled": false, 
      "description": "Create a variety of report from a single page.", 
      "parent": null, 
      "title": "Reports", 
      "ordering": 5, 
      "slug": "reports"
    }
  }, 
  {
    "pk": 6, 
    "model": "dashboard.section", 
    "fields": {
      "is_enabled": true, 
      "description": "Upload documents to your sight for training, information or forms.", 
      "parent": null, 
      "title": "Documents", 
      "ordering": 6, 
      "slug": "documents"
    }
  }, 
  {
    "pk": 21, 
    "model": "dashboard.section", 
    "fields": {
      "is_enabled": false, 
      "description": "View event expense reports", 
      "parent": 4, 
      "title": "Expense Report", 
      "ordering": 6, 
      "slug": "events-expense-report"
    }
  }, 
  {
    "pk": 15, 
    "model": "dashboard.section", 
    "fields": {
      "is_enabled": false, 
      "description": "View specific products reports from the database.", 
      "parent": 2, 
      "title": "Reports", 
      "ordering": 6, 
      "slug": "products-reports"
    }
  }, 
  {
    "pk": 35, 
    "model": "dashboard.section", 
    "fields": {
      "is_enabled": true, 
      "description": "", 
      "parent": 1, 
      "title": "Shopping Carts", 
      "ordering": 6, 
      "slug": "store-shopping-carts"
    }
  }, 
  {
    "pk": 22, 
    "model": "dashboard.section", 
    "fields": {
      "is_enabled": false, 
      "description": "User Check-in.", 
      "parent": 4, 
      "title": "Checkin", 
      "ordering": 7, 
      "slug": "events-check-ins"
    }
  }, 
  {
    "pk": 7, 
    "model": "dashboard.section", 
    "fields": {
      "is_enabled": true, 
      "description": "Search users in your system to alter details, communicate or view activities.", 
      "parent": null, 
      "title": "User Information", 
      "ordering": 7, 
      "slug": "users"
    }
  }, 
  {
    "pk": 8, 
    "model": "dashboard.section", 
    "fields": {
      "is_enabled": false, 
      "description": "View user commissions and manage your compensation plans.", 
      "parent": null, 
      "title": "Compensation & Commissions", 
      "ordering": 8, 
      "slug": "commissions"
    }
  }, 
  {
    "pk": 23, 
    "model": "dashboard.section", 
    "fields": {
      "is_enabled": false, 
      "description": "Check seats remaining per section.", 
      "parent": 4, 
      "title": "Seating Report", 
      "ordering": 8, 
      "slug": "events-seating-reports"
    }
  }, 
  {
    "pk": 36, 
    "model": "dashboard.section", 
    "fields": {
      "is_enabled": true, 
      "description": "", 
      "parent": 1, 
      "title": "Store Configurations", 
      "ordering": 8, 
      "slug": "store-configurations"
    }
  }, 
  {
    "pk": 9, 
    "model": "dashboard.section", 
    "fields": {
      "is_enabled": true, 
      "description": "Manage your pages content and design.", 
      "parent": null, 
      "title": "Content Management", 
      "ordering": 9, 
      "slug": "content-management"
    }
  }, 
  {
    "pk": 24, 
    "model": "dashboard.section", 
    "fields": {
      "is_enabled": false, 
      "description": "See IBO's who have not checkedin.", 
      "parent": 4, 
      "title": "Non Checked-in Ticket", 
      "ordering": 9, 
      "slug": "events-non-checked-in-tickets"
    }
  }
]