categoryId,category,showInStore,seq,altId,sort
3,fun in the sun,0,1,,fun in the sun
4,black and white,0,1,,black and white
5,the wild side,0,1,,the wild side
6,jamberry bling,0,1,,jamberry bling
7,the bridal party,0,1,,the bridal party
8,school girl,0,1,,school girl
9,sophistication,0,1,,sophistication
10,pretty polkas,0,1,,pretty polkas
11,solids,0,1,,solids
12,seasonal,0,1,,seasonal
13,Marketing Materials,0,1,,Marketing Materials
14,new fall / holiday designs,0,1,,new fall / holiday designs
15,gift certificates,-1,3,,gift certificates
16,valentine,0,1,,valentine
17,st. patricks day,0,1,,st. patricks day
18,Easter/Spring,-1,1,,easter/spring
19,Black and White,-1,1,,Black and White 1
20,Clear,-1,1,,Clear
21,Commitment to Charity,-1,1,,Commitment to Charity
22,Flower Power,-1,1,,Flower Power
23,Fun in the Sun,-1,1,,Fun in the Sun
24,Lines and Designs,-1,1,,Lines and Designs
25,Metallics,-1,1,,Metallics
26,Neutrals,-1,1,,Neutrals
28,Patriotic,-1,1,,Patriotic
29,Pretty Polkas,-1,1,,Pretty Polkas
30,School Girl,-1,1,,School Girl
31,School Spirit,-1,1,,School Spirit
33,Solids,-1,1,,Solids
34,Sophistication,-1,1,,Sophistication
35,Sparkle,-1,1,,Sparkle
36,Stripes and Checks,-1,1,,Stripes and Checks
37,The Bridal Party,-1,1,,Bridal Party
38,The Wild Side,-1,1,,Wild Side
39,You Asked for It,-1,1,,You Asked for It
40,Cuticle Oil,-1,2,,Cuticle Oil
