productId,sku,categoryId,name,description,groupName,subheading,groupProductIDs,relatedProductIDs,img,shipping,priceWholesale,priceRetail,cv,warehouseId,weight,shipable,CVtoSponsor,showInStore,showInRewardCenter,Servings,category,urlKey,designNumber,active,tmpCat
1,starterkit01,,Consultant Starter Kit,,,,,,,$15.00 ,$99.00 ,$99.00 ,0,1,0,-1,0,0,,,,,,0,
109,CH01,,Black & White Check,Each sheet of Nail Shields will do 2-3 sets of fingers or toes.,,,,,check-black-white.gif,$1.50 ,$10.50 ,$15.00 ,0,1,0.27,-1,0,-1,,,"019,036",black-and-white-check,CH01,-1,
110,SK01,,Black Skulls on White,Each sheet of Nail Shields will do 2-3 sets of fingers or toes.,,,,,skull-black-on-white.gif,$1.50 ,$10.50 ,$15.00 ,0,1,0.27,-1,0,-1,,,019,black-skulls-on-white,SK01,-1,
111,ST04,,Black Stars on White,Each sheet of Nail Shields will do 2-3 sets of fingers or toes.,,,,,black-star-on-white.gif,$1.50 ,$10.50 ,$15.00 ,0,1,0.27,-1,0,-1,,,019,black-stars-on-white,ST04,-1,
112,DS01,,Black & White Diagonal Stripe,Each sheet of Nail Shields will do 2-3 sets of fingers or toes.,,,,,stripes-diagonal-varied.gif,$1.50 ,$10.50 ,$15.00 ,0,1,0.27,-1,0,-1,,,019,bw-multi-diag-stripes,DS01,-1,
113,CR02,,Circle Chain,Each sheet of Nail Shields will do 2-3 sets of fingers or toes.,,,,,circle-chain-small.gif,$1.50 ,$10.50 ,$15.00 ,0,1,0.27,-1,0,-1,,,"025,037",circle-chain,CR02,0,
114,SK02,,White Skulls on Black ,Each sheet of Nail Shields will do 2-3 sets of fingers or toes.,,,,,skull-white-on-black.gif,$1.50 ,$10.50 ,$15.00 ,0,1,0.27,-1,0,-1,,,019,white-skulls-on-black,SK02,-1,
115,ZB03,,Zebra,Each sheet of Nail Shields will do 2-3 sets of fingers or toes.,,,,,zebra.gif,$1.50 ,$10.50 ,$15.00 ,0,1,0.27,-1,0,-1,,,"019,038",zebra,ZB03,-1,
116,CM01,,Gray Camo,Each sheet of Nail Shields will do 2-3 sets of fingers or toes.,,,,,GreyCamo.jpg,$1.50 ,$10.50 ,$15.00 ,0,1,0.27,-1,0,-1,,,030,camo-grey,CM01,-1,
117,DS02,,Candy Cane ,Each sheet of Nail Shields will do 2-3 sets of fingers or toes.,,,,,candycane.gif,$1.50 ,$10.50 ,$15.00 ,0,1,0.27,-1,0,-1,,,028,candy-cane,DS02,0,
118,SW01,,Color Swirl,Each sheet of Nail Shields will do 2-3 sets of fingers or toes.,,,,,swirls.jpg,$1.50 ,$10.50 ,$15.00 ,0,1,0.27,-1,0,-1,,,"03,",color-swirl,SW01,0,
119,DV02,,Decorative Blue,Each sheet of Nail Shields will do 2-3 sets of fingers or toes.,,,,,decorative-blue.gif,$1.50 ,$10.50 ,$15.00 ,0,1,0.27,-1,0,-1,,,034,decorative-blue,DV02,-1,
120,DV01,,Decorative Coral,Each sheet of Nail Shields will do 2-3 sets of fingers or toes.,,,,,decorative-coral.gif,$1.50 ,$10.50 ,$15.00 ,0,1,0.27,-1,0,-1,,,034,decorative-coral,DV01,-1,
121,GF02,,Giraffe,Each sheet of Nail Shields will do 2-3 sets of fingers or toes.,,,,,giraffe.gif,$1.50 ,$10.50 ,$15.00 ,0,1,0.27,-1,0,-1,,,038,giraffe,GF02,-1,
124,ZB01,,Green Zebra,Each sheet of Nail Shields will do 2-3 sets of fingers or toes.,,,,,zebra-green.gif,$1.50 ,$10.50 ,$15.00 ,0,1,0.27,-1,0,-1,,,038,green-zebra,ZB01,-1,
125,ZB05,,Orange and Black Zebra,Each sheet of Nail Shields will do 2-3 sets of fingers or toes.,,,,,orange-black-zebra.gif,$1.50 ,$10.50 ,$15.00 ,0,1,0.27,-1,0,-1,,,"05,",orange-black-zebra,ZB05,0,
126,FL05,,Orange Floral,Each sheet of Nail Shields will do 2-3 sets of fingers or toes.,,,,,Floral-Orange.jpg,$1.50 ,$10.50 ,$15.00 ,0,1,0.27,-1,0,-1,,,022,orange-floral,FL05,-1,
127,CH02,,Pink & Black Check,Each sheet of Nail Shields will do 2-3 sets of fingers or toes.,,,,,pink-black-check.gif,$1.50 ,$10.50 ,$15.00 ,0,1,0.27,-1,0,-1,,,036,pink-black-check,CH02,-1,
128,CH04,,Pink & Blue Check,Each sheet of Nail Shields will do 2-3 sets of fingers or toes.,,,,,check-pink-blue.gif,$1.50 ,$10.50 ,$15.00 ,0,1,0.27,-1,0,-1,,,036,pink-blue-check,CH04,-1,
130,CM02,,Pink Camo,Each sheet of Nail Shields will do 2-3 sets of fingers or toes.,,,,,pink-camo.gif,$1.50 ,$10.50 ,$15.00 ,0,1,0.27,-1,0,-1,,,030,pink-camo,CM02,-1,
131,AG01,,Pink & Black Argyle,Each sheet of Nail Shields will do 2-3 sets of fingers or toes.,,,,,argyle-pink-black.gif,$1.50 ,$10.50 ,$15.00 ,0,1,0.27,-1,0,-1,,,030,pink-black-argyle,AG01,-1,
132,PS01,,Pink Paisley,Each sheet of Nail Shields will do 2-3 sets of fingers or toes.,,,,,paisley-pink.gif,$1.50 ,$10.50 ,$15.00 ,0,1,0.27,-1,0,-1,,,"034,026",pink-paisley,PS01,0,
138,ZB06,,Pink Zebra,Each sheet of Nail Shields will do 2-3 sets of fingers or toes.,,,,,pink-white-zebra.gif,$1.50 ,$10.50 ,$15.00 ,0,1,0.27,-1,0,-1,,,038,pink-white-zebra,ZB06,-1,
139,GF01,,Purple Giraffe,Each sheet of Nail Shields will do 2-3 sets of fingers or toes.,,,,,purple-giraffe.gif,$1.50 ,$10.50 ,$15.00 ,0,1,0.27,-1,0,-1,,,038,purple-giraffe,GF01,-1,
140,ZB02,,Purple Zebra,Each sheet of Nail Shields will do 2-3 sets of fingers or toes.,,,,,zebra-purple.gif,$1.50 ,$10.50 ,$15.00 ,0,1,0.27,-1,0,-1,,,038,purple-zebra,ZB02,-1,
141,ZB04,,Yellow and Black Zebra ,Each sheet of Nail Shields will do 2-3 sets of fingers or toes.,,,,,yellow-tiger.gif,$1.50 ,$10.50 ,$15.00 ,0,1,0.27,-1,0,-1,,,"05,",yellow-tiger,ZB04,0,
142,SD03,,Metallic Chrome Silver,Each sheet of Nail Shields will do 2-3 sets of fingers or toes.,,,,,silver-chrome.gif,$1.50 ,$10.50 ,$15.00 ,0,1,0.27,-1,0,-1,,,033,chrome-silver,SD03,-1,
143,CR01,,Metallic Silver & White Cirlces,Each sheet of Nail Shields will do 2-3 sets of fingers or toes.,,,,,silver-white-circles.gif,$1.50 ,$10.50 ,$15.00 ,0,1,0.27,-1,0,-1,,,025,silver-white-circles,CR01,-1,
144,FN03,,Metallic Silver & White Fishnet,Each sheet of Nail Shields will do 2-3 sets of fingers or toes.,,,,,silver-white-fishnet.gif,$1.50 ,$10.50 ,$15.00 ,0,1,0.27,-1,0,-1,,,"025,037",silver-white-fishnet,FN03,-1,
146,ST02,,White Stars on Blue,Each sheet of Nail Shields will do 2-3 sets of fingers or toes.,,,,,white-star-on-blue.gif,$1.50 ,$10.50 ,$15.00 ,0,1,0.27,-1,0,-1,,,028,white-stars-on-blue,ST02,-1,
150,HS08,,Black & White Horizontal Stripe,Each sheet of Nail Shields will do 2-3 sets of fingers or toes.,,,,,stripes-black-white.gif,$1.50 ,$10.50 ,$15.00 ,0,1,0.27,-1,0,-1,,,"019,036",black-white-horizontal-stripe,HS08,-1,
152,FW02,,White Flower on Yellow,Each sheet of Nail Shields will do 2-3 sets of fingers or toes.,,,,,white-flower-on-yellow.gif,$1.50 ,$10.50 ,$15.00 ,0,1,0.27,-1,0,-1,,,"023,022",white-flower-yellow,FW02,0,
154,FW01,,White Flower on Mulberry,Each sheet of Nail Shields will do 2-3 sets of fingers or toes.,,,,,white-flower-on-mulberry.gif,$1.50 ,$10.50 ,$15.00 ,0,1,0.27,-1,0,-1,,,022,white-flower-on-mulberry,FW01,-1,
155,DM01,,Purple Diamond,Each sheet of Nail Shields will do 2-3 sets of fingers or toes.,,,,,diamondplate-purple.gif,$1.50 ,$10.50 ,$15.00 ,0,1,0.27,-1,0,-1,,,"08,",purple-diamond,DM01,0,
156,DM02,,White Diamond on Pink,Each sheet of Nail Shields will do 2-3 sets of fingers or toes.,,,,,white-diamond-vivid-pink.gif,$1.50 ,$10.50 ,$15.00 ,0,1,0.27,-1,0,-1,,,"08,",white-diamond-on-pink,DM02,0,
157,LP02,,Leopard,Each sheet of Nail Shields will do 2-3 sets of fingers or toes.,,,,,Leopard-Black-Gold.jpg,$1.50 ,$10.50 ,$15.00 ,0,1,0.27,-1,0,-1,,,038,leopard,LP02,-1,
158,LP01,,Yellow Leopard,Each sheet of Nail Shields will do 2-3 sets of fingers or toes.,,,,,cheetah.gif,$1.50 ,$10.50 ,$15.00 ,0,1,0.27,-1,0,-1,,,"05,",yellow-leopard,LP01,0,
159,LP03,,Blue Leopard ,Each sheet of Nail Shields will do 2-3 sets of fingers or toes.,,,,,Leopard-blue.jpg,$1.50 ,$10.50 ,$15.00 ,0,1,0.27,-1,0,-1,,,038,blue-leopard,LP03,-1,
161,PK17,,Turquoise Polka ,Each sheet of Nail Shields will do 2-3 sets of fingers or toes.,,,,,dots-turquoise.gif,$1.50 ,$10.50 ,$15.00 ,0,1,0.27,-1,0,-1,,,029,turquoise-polka,PK17,-1,
163,PK14,,Navy Dot,Each sheet of Nail Shields will do 2-3 sets of fingers or toes.,,,,,dots-tight-white-navy.gif,$1.50 ,$10.50 ,$15.00 ,0,1,0.27,-1,0,-1,,,029,navy-dot-on-white,PK14,-1,
164,VG02,,Vintage Green,Each sheet of Nail Shields will do 2-3 sets of fingers or toes.,,,,,VintageGreen.jpg,$1.50 ,$10.50 ,$15.00 ,0,1,0.27,-1,0,-1,,,"09,",vintage-green,VG02,0,
166,AG02,,Blue & Red Argyle,Each sheet of Nail Shields will do 2-3 sets of fingers or toes.,,,,,argyle-navy-red.gif,$1.50 ,$10.50 ,$15.00 ,0,1,0.27,-1,0,-1,,,031,red-blue-argyle,AG02,-1,
167,CH03,,Pink & White Check,Each sheet of Nail Shields will do 2-3 sets of fingers or toes.,,,,,pink-white-check.gif,$1.50 ,$10.50 ,$15.00 ,0,1,0.27,-1,0,-1,,,036,pink-white-check,CH03,-1,
170,FN05,,Purple Fishnet,Each sheet of Nail Shields will do 2-3 sets of fingers or toes.,,,,,purple-fishnet.gif,$1.50 ,$10.50 ,$15.00 ,0,1,0.27,-1,0,-1,,,034,purple-fishnet,FN05,-1,
172,ZB07,,Pink & Black Zebra,Each sheet of Nail Shields will do 2-3 sets of fingers or toes.,,,,,pink-black-zebra.gif,$1.50 ,$10.50 ,$15.00 ,0,1,0.27,-1,0,-1,,,038,pink-on-black-zebra,ZB07,-1,
173,PL05,,Pink & Blue Plaid,Each sheet of Nail Shields will do 2-3 sets of fingers or toes.,,,,,pink-blue-plaid.gif,$1.50 ,$10.50 ,$15.00 ,0,1,0.27,-1,0,-1,,,030,pink-blue-plaid,PL05,-1,
175,FL01,,Black Floral,Each sheet of Nail Shields will do 2-3 sets of fingers or toes.,,,,,black-floral.gif,$1.50 ,$10.50 ,$15.00 ,0,1,0.27,-1,0,-1,,,"037,019",black-floral,FL01,-1,
176,DV03,,Decorative Black,Each sheet of Nail Shields will do 2-3 sets of fingers or toes.,,,,,decorative-black.gif,$1.50 ,$10.50 ,$15.00 ,0,1,0.27,-1,0,-1,,,019,decorative-black,DV03,-1,
177,FW03,,White Flower on Teal,Each sheet of Nail Shields will do 2-3 sets of fingers or toes.,,,,,white-flower-on-teal.gif,$1.50 ,$10.50 ,$15.00 ,0,1,0.27,-1,0,-1,,,022,white-flower-on-teal,FW03,-1,
178,FW04,,Mulberry Flower on Pink,Each sheet of Nail Shields will do 2-3 sets of fingers or toes.,,,,,mulberry-flower-on-pink.gif,$1.50 ,$10.50 ,$15.00 ,0,1,0.27,-1,0,-1,,,022,mulberry-flower-on-pink,FW04,0,
179,SD05,,Darkest Black,Each sheet of Nail Shields will do 2-3 sets of fingers or toes.,,,,,black-solid.gif,$1.50 ,$10.50 ,$15.00 ,0,1,0.27,-1,0,-1,,,033,darkest-black,SD05,-1,
180,SD06,,Red,Each sheet of Nail Shields will do 2-3 sets of fingers or toes.,,,,,dark-red-solid.gif,$1.50 ,$10.50 ,$15.00 ,0,1,0.27,-1,0,-1,,,033,red,SD06,-1,
181,SD07,,Viking Blue ,Each sheet of Nail Shields will do 2-3 sets of fingers or toes.,,,,,viking-blue-solid.gif,$1.50 ,$10.50 ,$15.00 ,0,1,0.27,-1,0,-1,,,033,viking-blue,SD07,-1,
193,SD04,,Mirror Metallic Gold,Each sheet of Nail Shields will do 2-3 sets of fingers or toes.,,,,,mirror-gold-metallic.gif,$1.50 ,$10.50 ,$15.00 ,0,1,0.27,-1,0,-1,,,033,mirror-metallic-gold,SD04,-1,
194,SD01,,Metallic Red,Each sheet of Nail Shields will do 2-3 sets of fingers or toes.,,,,,metallic-red.gif,$1.50 ,$10.50 ,$15.00 ,0,1,0.27,-1,0,-1,,,033,metallic-red,SD01,-1,
196,SD02,,Metallic Blue,Each sheet of Nail Shields will do 2-3 sets of fingers or toes.,,,,,metallic-blue.gif,$1.50 ,$10.50 ,$15.00 ,0,1,0.27,-1,0,-1,,,033,metallic-blue,SD02,-1,
198,HD01,,Black & White Houndstooth,Each sheet of Nail Shields will do 2-3 sets of fingers or toes.,,,,,black_white_houndstooth.gif,$1.50 ,$10.50 ,$15.00 ,0,1,0.27,-1,0,-1,,,019,black-and-white-houndstooth,HT01,-1,
199,FL04,,Pink Floral,Each sheet of Nail Shields will do 2-3 sets of fingers or toes.,,,,,light_pink_floral.gif,$1.50 ,$10.50 ,$15.00 ,0,1,0.27,-1,0,-1,,,022,light-pink-floral,FL04,-1,
200,PK15,,Mauve Dot,Each sheet of Nail Shields will do 2-3 sets of fingers or toes.,,,,,mauve_dot.gif,$1.50 ,$10.50 ,$15.00 ,0,1,0.27,-1,0,-1,,,"037,029",mauve-dot-on-white,PK15,-1,
201,VG01,,Vintage Seafoam,Each sheet of Nail Shields will do 2-3 sets of fingers or toes.,,,,,vintage-seafoam.gif,$1.50 ,$10.50 ,$15.00 ,0,1,0.27,-1,0,-1,,,034,vintage-seafoam,VG01,-1,
202,SD08,,Pink,Each sheet of Nail Shields will do 2-3 sets of fingers or toes.,,,,,light_pink.gif,$1.50 ,$10.50 ,$15.00 ,0,1,0.27,-1,0,-1,,,033,solid-easter-pink,SD08,-1,
203,HD02,,Slate Houndstooth,Each sheet of Nail Shields will do 2-3 sets of fingers or toes.,,,,,slate_white_houndstooth.gif,$1.50 ,$10.50 ,$15.00 ,0,1,0.27,-1,0,-1,,,"034,037",slate-and-white-houndstooth,HT02,-1,
204,FW05,,Mulberry Flower on White,Each sheet of Nail Shields will do 2-3 sets of fingers or toes.,,,,,mulberry_flower_on_white.gif,$1.50 ,$10.50 ,$15.00 ,0,1,0.27,-1,0,-1,,,022,mulberry-flower-on-white,FW05,-1,
205,PK12,,Alice Blue Polka,Each sheet of Nail Shields will do 2-3 sets of fingers or toes.,,,,,alice_blue_polka.gif,$1.50 ,$10.50 ,$15.00 ,0,1,0.27,-1,0,-1,,,029,alice-blue-polka,PK12,-1,
206,FW06,,Spring Green Flower,Each sheet of Nail Shields will do 2-3 sets of fingers or toes.,,,,,spring-green_flower.gif,$1.50 ,$10.50 ,$15.00 ,0,1,0.27,-1,0,-1,,,037,spring-green-flower,FW06,0,
207,DS04,,Turquoise Orange Stripe,Each sheet of Nail Shields will do 2-3 sets of fingers or toes.,,,,,orange_turquoise_green_stripe.gif,$1.50 ,$10.50 ,$15.00 ,0,1,0.27,-1,0,-1,,,"03,",turquoise-orange-stripe,DS04,0,
208,PK10,,Sunflower Orange Polka,Each sheet of Nail Shields will do 2-3 sets of fingers or toes.,,,,,sunflower_yellow_polka.gif,$1.50 ,$10.50 ,$15.00 ,0,1,0.27,-1,0,-1,,,031,sunflower-orange-polka,PK10,0,
209,PK11,,Sunflower Orange & Turquoise Polka,Each sheet of Nail Shields will do 2-3 sets of fingers or toes.,,,,,sunflower_turquoise_polka.gif,$1.50 ,$10.50 ,$15.00 ,0,1,0.27,-1,0,-1,,,"023,029",sunflower-orange-and-turquoise-polka,PK11,-1,
210,PK13,,Turquoise & Pink Polka ,Each sheet of Nail Shields will do 2-3 sets of fingers or toes.,,,,,turquoise_pink_polka.gif,$1.50 ,$10.50 ,$15.00 ,0,1,0.27,-1,0,-1,,,"023,029",turquoise-pink-polka,PK13,-1,
211,PW01,,Vibrant Pinwheel,Each sheet of Nail Shields will do 2-3 sets of fingers or toes.,,,,,pinwheel.gif,$1.50 ,$10.50 ,$15.00 ,0,1,0.27,-1,0,-1,,,023,vibrant-pinwheel,PW01,-1,
212,SB01,,Magenta Orange Starburst,Each sheet of Nail Shields will do 2-3 sets of fingers or toes.,,,,,starburst.gif,$1.50 ,$10.50 ,$15.00 ,0,1,0.27,-1,0,-1,,,"03,",magenta-orange-starburst,SB01,0,
213,CR03,,Navy Yellow Circle,Each sheet of Nail Shields will do 2-3 sets of fingers or toes.,,,,,Navy-Yellow-circle-dots.gif,$1.50 ,$10.50 ,$15.00 ,0,1,0.27,-1,0,-1,,,"03,",navy-yellow-circle,CR03,0,
214,PK16,,Diagonal Green Dot,Each sheet of Nail Shields will do 2-3 sets of fingers or toes.,,,,,green_diagonal_dot.gif,$1.50 ,$10.50 ,$15.00 ,0,1,0.27,-1,0,-1,,,"023,029",diagonal-green-dot,PK16,0,
215,buy3discount,,Buy 3 Get 1 Free Discount,,,,,,,$0.00 ,($10.50),($15.00),0,1,0.27,0,0,0,,,,,,0,
216,freeNailSheet,,Free nail sheet,,,,,,,$0.00 ,($10.50),($15.00),0,1,0.27,0,0,0,,,,,,0,
217,HS06,,Turquoise & White Horizontal Stripe ,Each sheet of Nail Shields will do 2-3 sets of fingers or toes.,,,,,Turquoise-and-White-Horizontal-Stripe.gif,$1.50 ,$10.50 ,$15.00 ,0,1,0.27,-1,0,-1,,,036,diagonal-green-dot,HS06,-1,
218,HS07,,Pink & White Horizontal Stripe,Each sheet of Nail Shields will do 2-3 sets of fingers or toes.,,,,,Pink-white-horizontal-stripe.gif,$1.50 ,$10.50 ,$15.00 ,0,1,0.27,-1,0,-1,,,"023,036",diagonal-green-dot,HS07,-1,
219,PS04,,Black & White Paisley,Each sheet of Nail Shields will do 2-3 sets of fingers or toes.,,,,,Black-and-White-Paisley.gif,$1.50 ,$10.50 ,$15.00 ,0,1,0.27,-1,0,-1,,,019,diagonal-green-dot,PS04,-1,
220,HS02,,Red White & Blue Horizontal Stripe,Each sheet of Nail Shields will do 2-3 sets of fingers or toes.,,,,,Red-White-Blue-horizontal-stripe.gif,$1.50 ,$10.50 ,$15.00 ,0,1,0.27,-1,0,-1,,,028,diagonal-green-dot,HS11,-1,
221,couponFreeNailSheet,,Coupon - Free Nail Sheet,,,,,,,$0.00 ,($10.50),($15.00),0,1,0.27,0,0,0,,,,,,0,
222,hostessRewardCredit,,Hostess Reward Credit,,,,,,,$0.00 ,$0.00 ,$0.00 ,0,1,0.27,0,0,0,,,,,,0,
223,hostessRewardHalfOff,,Hostess Reward - Half Off,,,,,,,$0.00 ,($5.25),($7.50),0,1,0.27,0,0,0,,,,,,0,
224,hostessRewardFreeProduct,,Hostess Reward - Free Product,,,,,,,$0.00 ,($10.50),($15.00),0,1,0.27,0,0,0,,,,,,0,
225,25catalogs,,25 Spring/Summer Catalogs,1 pack of Jamberry Nails Catalogs - 25 per pack,,,,,,$1.50 ,$12.00 ,$12.00 ,0,1,0,-1,0,-1,,,013,,,-1,
226,50samplecards,,50 Sample Cards,25 Black and 25 Turquoise and Pink sample cards. For use as business cards or samples for customers.,,,,,,$1.50 ,$16.00 ,$16.00 ,0,1,0,-1,0,-1,,,013,,,-1,
227,25postcards,,25 Postcards,1 pack of Jamberry Nails Postcards - 25 per pack,,,,,,$1.50 ,$4.00 ,$4.00 ,0,1,0,-1,0,-1,,,013,,,-1,
228,100orderforms,,100 Order Forms,1 pack of Jamberry Nails Order Forms - 100 per pack,,,,,,$1.50 ,$9.00 ,$9.00 ,0,1,0,-1,0,-1,,,013,,,-1,
229,50brochures,,50 Brochures,1 pack of Jamberry Nails Brochures - 50 per pack,,,,,,$1.50 ,$9.00 ,$9.00 ,0,1,0,-1,0,-1,,,013,,,-1,
231,AG03,,Gold & Black Argyle,Each sheet of Nail Shields will do 2-3 sets of fingers or toes.,,,,,Argyle-BlackGold.jpg,$1.50 ,$10.50 ,$15.00 ,0,1,0.27,-1,0,-1,,,025,,AG03,-1,
232,AG04,,Orange and Black Argyle ,Each sheet of Nail Shields will do 2-3 sets of fingers or toes.,,,,,Argyle-BlackOrange.jpg,$1.50 ,$10.50 ,$15.00 ,0,1,0.27,-1,0,-1,,,030,,AG04,0,
233,PN03,,Black and White Pumpkins,Each sheet of Nail Shields will do 2-3 sets of fingers or toes.,,,,,Black White Pumpkin.jpg,$1.50 ,$10.50 ,$15.00 ,0,1,0.27,-1,0,-1,,,014,,PN03,0,
235,CH05,,Green Check ,Each sheet of Nail Shields will do 2-3 sets of fingers or toes.,,,,,Check-Green.jpg,$1.50 ,$10.50 ,$15.00 ,0,1,0.27,-1,0,-1,,,036,,CH05,0,
236,CH06,,Lavender Check,Each sheet of Nail Shields will do 2-3 sets of fingers or toes.,,,,,Check-Lavender.jpg,$1.50 ,$10.50 ,$15.00 ,0,1,0.27,-1,0,-1,,,036,,CH06,-1,
237,CN04,,Gray and Orange Chevron,Each sheet of Nail Shields will do 2-3 sets of fingers or toes.,,,,,Chevron-GrayOrange.jpg,$1.50 ,$10.50 ,$15.00 ,0,1,0.27,-1,0,-1,,,024,,CN04,0,
238,CN03,,Magenta & Orange Chevron,Each sheet of Nail Shields will do 2-3 sets of fingers or toes.,,,,,Chevron-MagentaOrange.jpg,$1.50 ,$10.50 ,$15.00 ,0,1,0.27,-1,0,-1,,,"023,024",,CN03,-1,
239,CN06,,Gold & Silver Chevron,Each sheet of Nail Shields will do 2-3 sets of fingers or toes.,,,,,Chevron-MirrorSilverGold.jpg,$1.50 ,$10.50 ,$15.00 ,0,1,0.27,-1,0,-1,,,"025,037",,CN06,-1,
240,CN02,,Black & White Chevron,Each sheet of Nail Shields will do 2-3 sets of fingers or toes.,,,,,ChevronBW.jpg,$1.50 ,$10.50 ,$15.00 ,0,1,0.27,-1,0,-1,,,"024,019",,CN02,-1,
241,CN01,,Multi Color Chevron,Each sheet of Nail Shields will do 2-3 sets of fingers or toes.,,,,,ChevronMulti.jpg,$1.50 ,$10.50 ,$15.00 ,0,1,0.27,-1,0,-1,,,"023,024",,CN01,-1,
242,CN05,,Purple Green and Black Chevron,Each sheet of Nail Shields will do 2-3 sets of fingers or toes.,,,,,ChevronPurpleGreenBlack.jpg,$1.50 ,$10.50 ,$15.00 ,0,1,0.27,-1,0,-1,,,031,,CN05,0,
243,VS03,,Christmas Polka Stripes,Each sheet of Nail Shields will do 2-3 sets of fingers or toes.,,,,,ChristmasPolkaStripes.jpg,$1.50 ,$10.50 ,$15.00 ,0,1,0.27,-1,0,-1,,,014,,VS03,0,
244,VS02,,Christmas Stripes,Each sheet of Nail Shields will do 2-3 sets of fingers or toes.,,,,,ChristmasStripes.jpg,$1.50 ,$10.50 ,$15.00 ,0,1,0.27,-1,0,-1,,,014,,VS02,0,
245,DK03,,Gold & Black Damask,Each sheet of Nail Shields will do 2-3 sets of fingers or toes.,,,,,Damask-Black-MirrorGold.jpg,$1.50 ,$10.50 ,$15.00 ,0,1,0.27,-1,0,-1,,,025,,DK03,-1,
246,DK02,,Black & White Damask,Each sheet of Nail Shields will do 2-3 sets of fingers or toes.,,,,,Damask-Black-White.jpg,$1.50 ,$10.50 ,$15.00 ,0,1,0.27,-1,0,-1,,,019,,DK02,-1,
247,DK04,,Blue Damask,Each sheet of Nail Shields will do 2-3 sets of fingers or toes.,,,,,Damask-Blue.jpg,$1.50 ,$10.50 ,$15.00 ,0,1,0.27,-1,0,-1,,,034,,DK04,-1,
248,DK01,,Silver and White Damask,Each sheet of Nail Shields will do 2-3 sets of fingers or toes.,,,,,Damask-MirrorSilver.jpg,$1.50 ,$10.50 ,$15.00 ,0,1,0.27,-1,0,-1,,,014,,DK01,0,
249,DK06,,Metallic Red and Silver Damask,Each sheet of Nail Shields will do 2-3 sets of fingers or toes.,,,,,Damask-Red-Silver.jpg,$1.50 ,$10.50 ,$15.00 ,0,1,0.27,-1,0,-1,,,014,,DK06,0,
250,DK05,,Sunflower Damask,Each sheet of Nail Shields will do 2-3 sets of fingers or toes.,,,,,Damask-SunflowerYellow.jpg,$1.50 ,$10.50 ,$15.00 ,0,1,0.27,-1,0,-1,,,034,,DK05,-1,
251,DV04,,Decorative Gray and Yellow,Each sheet of Nail Shields will do 2-3 sets of fingers or toes.,,,,,Decorative-greyYellow.jpg,$1.50 ,$10.50 ,$15.00 ,0,1,0.27,-1,0,-1,,,014,,DV04,0,
252,DV05,,Decorative Silver and White ,Each sheet of Nail Shields will do 2-3 sets of fingers or toes.,,,,,Decorative-SilverWhite.jpg,$1.50 ,$10.50 ,$15.00 ,0,1,0.27,-1,0,-1,,,037,,DV05,0,
253,FN01,,Black & Silver Fishnet,Each sheet of Nail Shields will do 2-3 sets of fingers or toes.,,,,,Fishnet-BlackSilver.jpg,$1.50 ,$10.50 ,$15.00 ,0,1,0.27,-1,0,-1,,,025,,FN01,-1,
254,FN02,,Silver & Gold Fishnet,Each sheet of Nail Shields will do 2-3 sets of fingers or toes.,,,,,Fishnet-GoldSilver.jpg,$1.50 ,$10.50 ,$15.00 ,0,1,0.27,-1,0,-1,,,025,,FN02,-1,
255,FN04,,Pink & Silver Fishnet,Each sheet of Nail Shields will do 2-3 sets of fingers or toes.,,,,,Fishnet-MagentaSilver.jpg,$1.50 ,$10.50 ,$15.00 ,0,1,0.27,-1,0,-1,,,025,,FN04,-1,
256,FM01,,Flames,Each sheet of Nail Shields will do 2-3 sets of fingers or toes.,,,,,flames.jpg,$1.50 ,$10.50 ,$15.00 ,0,1,0.27,-1,0,-1,,,039,,FM01,-1,
257,FL03,,Burgundy Floral,Each sheet of Nail Shields will do 2-3 sets of fingers or toes.,,,,,Floral-DarkBurgandy.jpg,$1.50 ,$10.50 ,$15.00 ,0,1,0.27,-1,0,-1,,,034,,FL03,-1,
258,FL06,,Green Blue Floral,Each sheet of Nail Shields will do 2-3 sets of fingers or toes.,,,,,Floral-GreenBlue.jpg,$1.50 ,$10.50 ,$15.00 ,0,1,0.27,-1,0,-1,,,025,,FL06,0,
259,FL02,,Dark Red Floral,Each sheet of Nail Shields will do 2-3 sets of fingers or toes.,,,,,Floral-TomatoeIntenseRed.jpg,$1.50 ,$10.50 ,$15.00 ,0,1,0.27,-1,0,-1,,,022,,FL02,-1,
260,HW01,,Halloween Words,Each sheet of Nail Shields will do 2-3 sets of fingers or toes.,,,,,HalloweenWords.jpg,$1.50 ,$10.50 ,$15.00 ,0,1,0.27,-1,0,-1,,,014,,HW01,0,
261,HS09,,Orange & Black Horizontal Stripe,Each sheet of Nail Shields will do 2-3 sets of fingers or toes.,,,,,HorizStripe-BlackOrange.jpg,$1.50 ,$10.50 ,$15.00 ,0,1,0.27,-1,0,-1,,,031,,HS02,-1,
262,HS01,,Purple and Black Horizontal Stripe,Each sheet of Nail Shields will do 2-3 sets of fingers or toes.,,,,,HorizStripe-BlackPurple.jpg,$1.50 ,$10.50 ,$15.00 ,0,1,0.27,-1,0,-1,,,"025,036",,HS01,0,
263,HS04,,Gray  & Yellow Horizontal Stripe ,Each sheet of Nail Shields will do 2-3 sets of fingers or toes.,,,,,HorizStripe-GreyYellow.jpg,$1.50 ,$10.50 ,$15.00 ,0,1,0.27,-1,0,-1,,,036,,HS04,-1,
264,HS05,,Turquoise & Yellow Horizontal Stripe,Each sheet of Nail Shields will do 2-3 sets of fingers or toes.,,,,,HorizStripe-Turquoise-Yellow.jpg,$1.50 ,$10.50 ,$15.00 ,0,1,0.27,-1,0,-1,,,"023,036",,HS05,-1,
265,LV01,,Leaves,Each sheet of Nail Shields will do 2-3 sets of fingers or toes.,,,,,Leaves.jpg,$1.50 ,$10.50 ,$15.00 ,0,1,0.27,-1,0,-1,,,014,,LV01,0,
266,MZ04,,Gold Maze,Each sheet of Nail Shields will do 2-3 sets of fingers or toes.,,,,,Maze-Gold.jpg,$1.50 ,$10.50 ,$15.00 ,0,1,0.27,-1,0,-1,,,014,,MZ04,0,
267,MZ02,,Hot Green Maze,Each sheet of Nail Shields will do 2-3 sets of fingers or toes.,,,,,Maze-HotGreen.jpg,$1.50 ,$10.50 ,$15.00 ,0,1,0.27,-1,0,-1,,,"014,017",,MZ02,0,
268,MZ01,,Navy Maze,Each sheet of Nail Shields will do 2-3 sets of fingers or toes.,,,,,Maze-Navy.jpg,$1.50 ,$10.50 ,$15.00 ,0,1,0.27,-1,0,-1,,,014,,MZ01,0,
269,MZ06,,Orange and Black Maze,Each sheet of Nail Shields will do 2-3 sets of fingers or toes.,,,,,Maze-OrangeBlack.jpg,$1.50 ,$10.50 ,$15.00 ,0,1,0.27,-1,0,-1,,,014,,MZ06,0,
270,MZ03,,Silver Maze ,Each sheet of Nail Shields will do 2-3 sets of fingers or toes.,,,,,Maze-Silver.jpg,$1.50 ,$10.50 ,$15.00 ,0,1,0.27,-1,0,-1,,,014,,MZ03,0,
271,DS03,,Metallic Candy Cane,Each sheet of Nail Shields will do 2-3 sets of fingers or toes.,,,,,Metallic Candy Cane.jpg,$1.50 ,$10.50 ,$15.00 ,0,1,0.27,-1,0,-1,,,014,,DS03,0,
272,PK07,,Fall Missing Polka,Each sheet of Nail Shields will do 2-3 sets of fingers or toes.,,,,,MissingPolka-Fall.jpg,$1.50 ,$10.50 ,$15.00 ,0,1,0.27,-1,0,-1,,,"029,028",,PK07,0,
273,PK08,,Green Blue Purple Missing Polka ,Each sheet of Nail Shields will do 2-3 sets of fingers or toes.,,,,,MissingPolka-GrnBluPurplel.jpg,$1.50 ,$10.50 ,$15.00 ,0,1,0.27,-1,0,-1,,,029,,PK08,-1,
274,PK09,,Metallics Missing Polka,Each sheet of Nail Shields will do 2-3 sets of fingers or toes.,,,,,MissingPolka-metallics.jpg,$1.50 ,$10.50 ,$15.00 ,0,1,0.27,-1,0,-1,,,"029,028",,PK09,0,
275,VS01,,Navy Pinstripe,Each sheet of Nail Shields will do 2-3 sets of fingers or toes.,,,,,NavyPinstripe.jpg,$1.50 ,$10.50 ,$15.00 ,0,1,0.27,-1,0,-1,,,014,,VS01,0,
276,ST01,,Colorful Stars ,Each sheet of Nail Shields will do 2-3 sets of fingers or toes.,,,,,NewStar-Fuchsia.jpg,$1.50 ,$10.50 ,$15.00 ,0,1,0.27,-1,0,-1,,,030,,ST01,-1,
277,PS02,,Burgundy Paisley,Each sheet of Nail Shields will do 2-3 sets of fingers or toes.,,,,,Paisley-Burgundy.jpg,$1.50 ,$10.50 ,$15.00 ,0,1,0.27,-1,0,-1,,,034,,PS02,-1,
278,PS03,,Dark Blue Paisley,Each sheet of Nail Shields will do 2-3 sets of fingers or toes.,,,,,Paisley-DkBlue.jpg,$1.50 ,$10.50 ,$15.00 ,0,1,0.27,-1,0,-1,,,034,,PS03,-1,
279,PL03,,Purple Green & Black Plaid,Each sheet of Nail Shields will do 2-3 sets of fingers or toes.,,,,,Plaid-BlackGreenPurple.jpg,$1.50 ,$10.50 ,$15.00 ,0,1,0.27,-1,0,-1,,,024,,PL03,-1,
280,PL01,,Red and Gold Plaid,Each sheet of Nail Shields will do 2-3 sets of fingers or toes.,,,,,Plaid-ChristmasRed.jpg,$1.50 ,$10.50 ,$15.00 ,0,1,0.27,-1,0,-1,,,025,,PL01,0,
281,PL02,,Green and Silver Plaid,Each sheet of Nail Shields will do 2-3 sets of fingers or toes.,,,,,Plaid-GreenBlue.jpg,$1.50 ,$10.50 ,$15.00 ,0,1,0.27,-1,0,-1,,,025,,PL02,0,
282,PK04,,Blue & Yellow Polka,Each sheet of Nail Shields will do 2-3 sets of fingers or toes.,,,,,Polka-BlueYellow.jpg,$1.50 ,$10.50 ,$15.00 ,0,1,0.27,-1,0,-1,,,"029,031",,PK04,-1,
283,PK05,,Colorful Polka ,Each sheet of Nail Shields will do 2-3 sets of fingers or toes.,,,,,Polka-CMYG.jpg,$1.50 ,$10.50 ,$15.00 ,0,1,0.27,-1,0,-1,,,"023,029",,PK05,-1,
284,PK02,,Grey & White Polka,Each sheet of Nail Shields will do 2-3 sets of fingers or toes.,,,,,Polka-GreyWhite.jpg,$1.50 ,$10.50 ,$15.00 ,0,1,0.27,-1,0,-1,,,029,,PK02,-1,
285,PK06,,Small Multi Polka,Each sheet of Nail Shields will do 2-3 sets of fingers or toes.,,,,,Polka-SmallMulti.jpg,$1.50 ,$10.50 ,$15.00 ,0,1,0.27,-1,0,-1,,,029,,PK06,-1,
286,PK03,,Progressive Red Dot ,Each sheet of Nail Shields will do 2-3 sets of fingers or toes.,,,,,ProgressiveDotRed.jpg,$1.50 ,$10.50 ,$15.00 ,0,1,0.27,-1,0,-1,,,031,,PK03,-1,
287,HS10,,Progressive Purple Stripe ,Each sheet of Nail Shields will do 2-3 sets of fingers or toes.,,,,,ProgressiveStripe.jpg,$1.50 ,$10.50 ,$15.00 ,0,1,0.27,-1,0,-1,,,031,,HS10,-1,
288,PN01,,Black and Gray Pumpkins,Each sheet of Nail Shields will do 2-3 sets of fingers or toes.,,,,,Pumpkins.jpg,$1.50 ,$10.50 ,$15.00 ,0,1,0.27,-1,0,-1,,,014,,PN01,0,
289,SF02,,Gold Snowflakes,Each sheet of Nail Shields will do 2-3 sets of fingers or toes.,,,,,Snowflakes-mirrowGold.jpg,$1.50 ,$10.50 ,$15.00 ,0,1,0.27,-1,0,-1,,,014,,SF02,0,
290,SF01,,Chrome Silver Snowflakes,Each sheet of Nail Shields will do 2-3 sets of fingers or toes.,,,,,Snowflakes-mirrowSilver.jpg,$1.50 ,$10.50 ,$15.00 ,0,1,0.27,-1,0,-1,,,039,,SF01,0,
291,SD16,,Aqua Green,Each sheet of Nail Shields will do 2-3 sets of fingers or toes.,,,,,SolidAquaGreen.jpg,$1.50 ,$10.50 ,$15.00 ,0,1,0.27,-1,0,-1,,,033,,SD16,-1,
292,SD10,,Burgundy,Each sheet of Nail Shields will do 2-3 sets of fingers or toes.,,,,,SolidBurgundy.jpg,$1.50 ,$10.50 ,$15.00 ,0,1,0.27,-1,0,-1,,,033,,SD10,-1,
293,SD11,,Cyan,Each sheet of Nail Shields will do 2-3 sets of fingers or toes.,,,,,SolidCyan.jpg,$1.50 ,$10.50 ,$15.00 ,0,1,0.27,-1,0,-1,,,033,,SD11,-1,
294,SD12,,Purple  ,Each sheet of Nail Shields will do 2-3 sets of fingers or toes.,,,,,SolidHotFuschia.jpg,$1.50 ,$10.50 ,$15.00 ,0,1,0.27,-1,0,-1,,,033,,SD12,-1,
295,SD09,,Hot Green,Each sheet of Nail Shields will do 2-3 sets of fingers or toes.,,,,,SolidHotGreen.jpg,$1.50 ,$10.50 ,$15.00 ,0,1,0.27,-1,0,-1,,,033,,SD09,-1,
296,SD13,,Magenta,Each sheet of Nail Shields will do 2-3 sets of fingers or toes.,,,,,SolidMagenta.jpg,$1.50 ,$10.50 ,$15.00 ,0,1,0.27,-1,0,-1,,,033,,SD13,-1,
297,SD14,,Sunflower Yellow,Each sheet of Nail Shields will do 2-3 sets of fingers or toes.,,,,,SolidSunflowerYellow.jpg,$1.50 ,$10.50 ,$15.00 ,0,1,0.27,-1,0,-1,,,033,,SD14,-1,
298,SD15,,Yellow ,Each sheet of Nail Shields will do 2-3 sets of fingers or toes.,,,,,SolidYellow.jpg,$1.50 ,$10.50 ,$15.00 ,0,1,0.27,-1,0,-1,,,033,,SD15,-1,
299,SW01,,Spider Web,Each sheet of Nail Shields will do 2-3 sets of fingers or toes.,,,,,SpiderWeb.jpg,$1.50 ,$10.50 ,$15.00 ,0,1,0.27,-1,0,-1,,,014,,SW01,0,
300,ST03,,White Stars on Pink,Each sheet of Nail Shields will do 2-3 sets of fingers or toes.,,,,,Star-Magenta.jpg,$1.50 ,$10.50 ,$15.00 ,0,1,0.27,-1,0,-1,,,030,,ST03,-1,
301,ST05,,Gold Stars on Black,Each sheet of Nail Shields will do 2-3 sets of fingers or toes.,,,,,Stars-BlackGold.jpg,$1.50 ,$10.50 ,$15.00 ,0,1,0.27,-1,0,-1,,,025,,ST05,-1,
302,VG03,,Vintage Pink & Black Lace,Each sheet of Nail Shields will do 2-3 sets of fingers or toes.,,,,,VintageLace-BlackPink.jpg,$1.50 ,$10.50 ,$15.00 ,0,1,0.27,-1,0,-1,,,,,VG03,-1,
303,VG04,,Vintage Red and White Lace,Each sheet of Nail Shields will do 2-3 sets of fingers or toes.,,,,,VintageLace-RedWhite.jpg,$1.50 ,$10.50 ,$15.00 ,0,1,0.27,-1,0,-1,,,034,,VG05,-1,
304,VG04,,Vintage Turquoise & Yellow Lace,Each sheet of Nail Shields will do 2-3 sets of fingers or toes.,,,,,VintageLace-Turquoise-Yellow.jpg,$1.50 ,$10.50 ,$15.00 ,0,1,0.27,-1,0,-1,,,034,,VG04,0,
305,VG06,,Vintage Triangles,Each sheet of Nail Shields will do 2-3 sets of fingers or toes.,,,,,VintageTriangles.jpg,$1.50 ,$10.50 ,$15.00 ,0,1,0.27,-1,0,-1,,,024,,VG06,0,
306,WS06,,Blue Whimsical Swirl,Each sheet of Nail Shields will do 2-3 sets of fingers or toes.,,,,,WhimsicalSwirl-BlueWhite.jpg,$1.50 ,$10.50 ,$15.00 ,0,1,0.27,-1,0,-1,,,031,,WS06,-1,
307,WS04,,Green and Purple Whimsical Swirl,Each sheet of Nail Shields will do 2-3 sets of fingers or toes.,,,,,WhimsicalSwirl-GreenPurple.jpg,$1.50 ,$10.50 ,$15.00 ,0,1,0.27,-1,0,-1,,,031,,WS04,0,
308,WS02,,Metallic Red and Silver Whimsical Swirl,Each sheet of Nail Shields will do 2-3 sets of fingers or toes.,,,,,WhimsicalSwirl-MirrorRedSilver.jpg,$1.50 ,$10.50 ,$15.00 ,0,1,0.27,-1,0,-1,,,023,,WS02,0,
309,WS01,,Red and Green Whimsical Swirl,Each sheet of Nail Shields will do 2-3 sets of fingers or toes.,,,,,WhimsicalSwirl-RedGreen.jpg,$1.50 ,$10.50 ,$15.00 ,0,1,0.27,-1,0,-1,,,025,,WS01,0,
310,WS03,,Red Whimsical Swirl,Each sheet of Nail Shields will do 2-3 sets of fingers or toes.,,,,,WhimsicalSwirl-RedWhite.jpg,$1.50 ,$10.50 ,$15.00 ,0,1,0.27,-1,0,-1,,,028,,WS03,0,
311,WS05,,Red and Sunflower Whimsical Swirl,Each sheet of Nail Shields will do 2-3 sets of fingers or toes.,,,,,WhimsicalSwirl-RedYellow.jpg,$1.50 ,$10.50 ,$15.00 ,0,1,0.27,-1,0,-1,,,014,,WS05,0,
312,25fallinserts,,25 Fall Catalog Inserts,25 Fall Catalog Inserts,,,,,,$1.50 ,$12.00 ,$12.00 ,0,1,0.27,-1,0,0,,,,,,0,
313,HS03,,Halloween Horizontal Stripe,Each sheet of Nail Shields will do 2-3 sets of fingers or toes.,,,,,HorizStripe-Halloween.jpg,$1.50 ,$10.50 ,$15.00 ,0,1,0.27,-1,0,-1,,,031,,HS03,0,
314,PN02,,Orange and White Pumpkins,Each sheet of Nail Shields will do 2-3 sets of fingers or toes.,,,,,OldPumpkins-Orange.jpg,$1.50 ,$10.50 ,$15.00 ,0,1,0.27,-1,0,-1,,,014,,PN02,0,
315,PL04,,Silver Gold & Black Plaid ,Each sheet of Nail Shields will do 2-3 sets of fingers or toes.,,,,,Plaid-GoldSilverBlack.jpg,$1.50 ,$10.50 ,$15.00 ,0,1,0.27,-1,0,-1,,,025,,PL04,-1,
316,PK01,,Red & Gold Polka,Each sheet of Nail Shields will do 2-3 sets of fingers or toes.,,,,,Polka-RedandGold.jpg,$1.50 ,$10.50 ,$15.00 ,0,1,0.27,-1,0,-1,,,031,,PK01,-1,
317,HS09,,Progressive Silver Stripe ,Each sheet of Nail Shields will do 2-3 sets of fingers or toes.,,,,,ProgressiveStripe-MirrorSilver.jpg,$1.50 ,$10.50 ,$15.00 ,0,1,0.27,-1,0,-1,,,031,,HS09,0,
318,HL01,,Holiday Ornaments,Each sheet of Nail Shields will do 2-3 sets of fingers or toes.,,,,,HolidayOrnaments.jpg,$1.50 ,$10.50 ,$15.00 ,0,1,0.27,-1,0,-1,,,014,,HL01,0,
319,giftcertificate15,,$15 Gift Certificate,$15 Jamberry Gift Certificate,,,,,blank.gif,$1.50 ,$10.50 ,$15.00 ,0,1,0.27,-1,0,-1,,,015,,,-1,
320,bizsupplycreidt,,Business Supply Credit,,,,,,,$0.00 ,$0.00 ,$0.00 ,0,1,0,0,0,0,,,,,,0,
321,FL01-old,,Black Floral - Black Friday Special,Each sheet of Nail Shields will do 2-3 sets of fingers or toes.,,,,,black-floral.gif,$1.50 ,$7.50 ,$7.50 ,0,1,0.27,-1,0,0,,,"037,019",black-floral,FL01,-1,
322,HS08,,Black & White Horizontal Stripe  - Black Friday Special,Each sheet of Nail Shields will do 2-3 sets of fingers or toes.,,,,,stripes-black-white.gif,$1.50 ,$7.50 ,$7.50 ,0,1,0.27,-1,0,0,,,"019,036",black-white-horizontal-stripe,HS08,0,
323,HT01,,Pink & White Heart Collage,Each sheet of Nail Shields will do 2-3 sets of fingers or toes.,,,,,HeartCollage-pink.jpg,$1.50 ,$10.50 ,$15.00 ,0,1,0.27,-1,0,-1,,,030,,WS03,-1,
324,HT02,,Multi Color Heart Collage,Each sheet of Nail Shields will do 2-3 sets of fingers or toes.,,,,,HeartCollage-multi.jpg,$1.50 ,$10.50 ,$15.00 ,0,1,0.27,-1,0,-1,,,039,,WS03,0,
325,VT01,,Kisses,Each sheet of Nail Shields will do 2-3 sets of fingers or toes.,,,,,Kisses.jpg,$1.50 ,$10.50 ,$15.00 ,0,1,0.27,-1,0,-1,,,016,,WS03,0,
326,HT03,,Chalkboard Hearts,Each sheet of Nail Shields will do 2-3 sets of fingers or toes.,,,,,ChalkboardHearts.jpg,$1.50 ,$10.50 ,$15.00 ,0,1,0.27,-1,0,-1,,,019,,WS03,-1,
327,HT04,,Hearts on a String,Each sheet of Nail Shields will do 2-3 sets of fingers or toes.,,,,,heartsString.jpg,$1.50 ,$10.50 ,$15.00 ,0,1,0.27,-1,0,-1,,,030,,WS03,-1,
328,HT05,,Small Hearts,Each sheet of Nail Shields will do 2-3 sets of fingers or toes.,,,,,HeartsSmall.jpg,$1.50 ,$10.50 ,$15.00 ,0,1,0.27,-1,0,-1,,,030,,WS03,-1,
329,VT02,,Pink & Purple I Love You,Each sheet of Nail Shields will do 2-3 sets of fingers or toes.,,,,,ILoveYou-PinkPurple.jpg,$1.50 ,$10.50 ,$15.00 ,0,1,0.27,-1,0,-1,,,016,,WS03,0,
330,VT03,,Red & Black I Love You,Each sheet of Nail Shields will do 2-3 sets of fingers or toes.,,,,,ILoveYou-BlackRed.jpg,$1.50 ,$10.50 ,$15.00 ,0,1,0.27,-1,0,-1,,,016,,WS03,0,
331,VT04,,XOXO,Each sheet of Nail Shields will do 2-3 sets of fingers or toes.,,,,,XOXO.jpg,$1.50 ,$10.50 ,$15.00 ,0,1,0.27,-1,0,-1,,,016,,WS03,0,
333,SP01,,Gold Shamrock,Each sheet of Nail Shields will do 2-3 sets of fingers or toes.,,,,,Shamrock-Gold.jpg,$1.50 ,$10.50 ,$15.00 ,0,1,0.27,-1,0,-1,,,039,,WS03,0,
334,SP02,,Green Shamrock,Each sheet of Nail Shields will do 2-3 sets of fingers or toes.,,,,,Shamrock-green.jpg,$1.50 ,$10.50 ,$15.00 ,0,1,0.27,-1,0,-1,,,039,,WS03,0,
335,HS11,,Green & White Horizontal Stripe,Each sheet of Nail Shields will do 2-3 sets of fingers or toes.,,,,,HorizStripe-Green.jpg,$1.50 ,$10.50 ,$15.00 ,0,1,0.27,-1,0,-1,,,031,,WS03,-1,
336,SP03,,Green Four Leaf Clover,Each sheet of Nail Shields will do 2-3 sets of fingers or toes.,,,,,FourLeafClover.jpg,$1.50 ,$10.50 ,$15.00 ,0,1,0.27,-1,0,-1,,,039,,WS03,0,
338,25valentineinserts,,25 Valentines Inserts,25 Valentines Inserts.<br><br>The new catalogs contain the Valentines designs. The inserts are for anybody that has catalogs from November or earlier.,,,,,,$1.50 ,$3.00 ,$3.00 ,0,1,0.27,-1,0,0,,,,,,0,
339,FW06,,Lavender Magnolia,Each sheet of Nail Shields will do 2-3 sets of fingers or toes.,,,,,Magnolia.jpg,$1.50 ,$10.50 ,$15.00 ,0,1,0.27,-1,0,-1,,,018,,,0,
340,FW07,,Pink Roses,Each sheet of Nail Shields will do 2-3 sets of fingers or toes.,,,,,PinkRoses.jpg,$1.50 ,$10.50 ,$15.00 ,0,1,0.27,-1,0,-1,,,018,,,0,
341,FW08,,Lavender Roses,Each sheet of Nail Shields will do 2-3 sets of fingers or toes.,,,,,LavenderRoses.jpg,$1.50 ,$10.50 ,$15.00 ,0,1,0.27,-1,0,-1,,,018,,,0,
342,FW10,,Water Flowers,Each sheet of Nail Shields will do 2-3 sets of fingers or toes.,,,,,WaterFlowers.jpg,$1.50 ,$10.50 ,$15.00 ,0,1,0.27,-1,0,-1,,,018,,,0,
343,FW11,,Spring Flowers,Each sheet of Nail Shields will do 2-3 sets of fingers or toes.,,,,,SpringFlower.jpg,$1.50 ,$10.50 ,$15.00 ,0,1,0.27,-1,0,-1,,,018,,,0,
344,SW02,,Pink & Purple Swirl,Each sheet of Nail Shields will do 2-3 sets of fingers or toes.,,,,,PinkPurpleSwirl.jpg,$1.50 ,$10.50 ,$15.00 ,0,1,0.27,-1,0,-1,,,018,,,0,
345,FW09,,Taupe Vintage Roses,Each sheet of Nail Shields will do 2-3 sets of fingers or toes.,,,,,VintageRose-Taupe.jpg,$1.50 ,$10.50 ,$15.00 ,0,1,0.27,-1,0,-1,,,018,,,0,
346,DV05,,Decorative Purple,Each sheet of Nail Shields will do 2-3 sets of fingers or toes.,,,,,PurpleDecorative.jpg,$1.50 ,$10.50 ,$15.00 ,0,1,0.27,-1,0,-1,,,018,,,0,
347,DV06,,Decorative Aqua,Each sheet of Nail Shields will do 2-3 sets of fingers or toes.,,,,,AquaDecorative.jpg,$1.50 ,$10.50 ,$15.00 ,0,1,0.27,-1,0,-1,,,018,,,0,
348,EA01,,Pink & Purple Eggs,Each sheet of Nail Shields will do 2-3 sets of fingers or toes.,,,,,PinkPurpleEggs.jpg,$1.50 ,$10.50 ,$15.00 ,0,1,0.27,-1,0,-1,,,018,,,-1,
349,EA02,,Silver & Gold Eggs,Each sheet of Nail Shields will do 2-3 sets of fingers or toes.,,,,,GoldSilverEggs.jpg,$1.50 ,$10.50 ,$15.00 ,0,1,0.27,-1,0,-1,,,018,,,-1,
350,EA03,,Easter Bunnies,Each sheet of Nail Shields will do 2-3 sets of fingers or toes.,,,,,Bunnies.jpg,$1.50 ,$10.50 ,$15.00 ,0,1,0.27,-1,0,-1,,,018,,,-1,
351,PW02,,Pink & Purple Pinwheel,Each sheet of Nail Shields will do 2-3 sets of fingers or toes.,,,,,PinkPurplePinwheel.jpg,$1.50 ,$10.50 ,$15.00 ,0,1,0.27,-1,0,-1,,,018,,,0,
352,BF01,,Pink Butterflies,Each sheet of Nail Shields will do 2-3 sets of fingers or toes.,,,,,PinkButterflies.jpg,$1.50 ,$10.50 ,$15.00 ,0,1,0.27,-1,0,-1,,,018,,,0,
353,BF02,,Gold Butterflies,Each sheet of Nail Shields will do 2-3 sets of fingers or toes.,,,,,GoldButterflies.jpg,$1.50 ,$10.50 ,$15.00 ,0,1,0.27,-1,0,-1,,,018,,,0,
354,AG04,,Colorful Argyle,Each sheet of Nail Shields will do 2-3 sets of fingers or toes.,,,,,MultiArgyle.jpg,$1.50 ,$10.50 ,$15.00 ,0,1,0.27,-1,0,-1,,,018,,,0,
355,CN07,,Mint Green Chevron,Each sheet of Nail Shields will do 2-3 sets of fingers or toes.,,,,,MintGreenChevron.jpg,$1.50 ,$10.50 ,$15.00 ,0,1,0.27,-1,0,-1,,,018,,,0,
356,RE01,,Christian Fish,Each sheet of Nail Shields will do 2-3 sets of fingers or toes.,,,,,ChristianFish.jpg,$1.50 ,$10.50 ,$15.00 ,0,1,0.27,-1,0,-1,,,018,,,0,
358,AG04,,colorful argyle,Each sheet of Nail Shields will do 2-3 sets of fingers or toes.,,,,,colorful_argyle.jpg,$1.50 ,$10.50 ,$15.00 ,0,1,0.27,-1,0,-1,,,"030,018",,,-1,
359,AG05,,blue & orange argyle,Each sheet of Nail Shields will do 2-3 sets of fingers or toes.,,,,,blue_orange_argyle.jpg,$1.50 ,$10.50 ,$15.00 ,0,1,0.27,-1,0,-1,,,031,,,-1,
360,AG06,,purple & yellow argyle,Each sheet of Nail Shields will do 2-3 sets of fingers or toes.,,,,,purple_yellow_argyle.jpg,$1.50 ,$10.50 ,$15.00 ,0,1,0.27,-1,0,-1,,,031,,,-1,
361,AW01,,autism awareness,Each sheet of Nail Shields will do 2-3 sets of fingers or toes.,,,,,autism_awareness.jpg,$1.50 ,$10.50 ,$15.00 ,0,1,0.27,-1,0,-1,,,021,,,-1,
362,AW02,,breast cancer awareness,Each sheet of Nail Shields will do 2-3 sets of fingers or toes.,,,,,breast_cancer_awareness.jpg,$1.50 ,$10.50 ,$15.00 ,0,1,0.27,-1,0,-1,,,021,,,-1,
363,AW03,,pay it forward Black and White,Each sheet of Nail Shields will do 2-3 sets of fingers or toes.,,,,,pay_it_forward_Black_and_White.jpg,$1.50 ,$10.50 ,$15.00 ,0,1,0.27,-1,0,-1,,,021,,,-1,
364,AW04,,pay it forward Color,Each sheet of Nail Shields will do 2-3 sets of fingers or toes.,,,,,pay_it_forward_Color.jpg,$1.50 ,$10.50 ,$15.00 ,0,1,0.27,-1,0,-1,,,021,,,-1,
365,AW05,,Recycle,Each sheet of Nail Shields will do 2-3 sets of fingers or toes.,,,,,Recycle.jpg,$1.50 ,$10.50 ,$15.00 ,0,1,0.27,-1,0,-1,,,039,,,-1,
366,AW06,,Peace Signs,Each sheet of Nail Shields will do 2-3 sets of fingers or toes.,,,,,Peace_Signs.jpg,$1.50 ,$10.50 ,$15.00 ,0,1,0.27,-1,0,-1,,,030,,,-1,
367,BF01,,pink butterflies,Each sheet of Nail Shields will do 2-3 sets of fingers or toes.,,,,,pink_butterflies.jpg,$1.50 ,$10.50 ,$15.00 ,0,1,0.27,-1,0,-1,,,"023,018",,,-1,
368,BF02,,gold butterflies,Each sheet of Nail Shields will do 2-3 sets of fingers or toes.,,,,,gold_butterflies.jpg,$1.50 ,$10.50 ,$15.00 ,0,1,0.27,-1,0,-1,,,"025,018",,,-1,
369,BF03,,turquoise butterflies,Each sheet of Nail Shields will do 2-3 sets of fingers or toes.,,,,,turquoise_butterflies.jpg,$1.50 ,$10.50 ,$15.00 ,0,1,0.27,-1,0,-1,,,039,,,-1,
370,BS01,,birds,Each sheet of Nail Shields will do 2-3 sets of fingers or toes.,,,,,birds.jpg,$1.50 ,$10.50 ,$15.00 ,0,1,0.27,-1,0,-1,,,039,,,-1,
371,CC01,,cupcakes,Each sheet of Nail Shields will do 2-3 sets of fingers or toes.,,,,,cupcakes.jpg,$1.50 ,$10.50 ,$15.00 ,0,1,0.27,-1,0,-1,,,039,,,-1,
372,CH05,,matte silver check,Each sheet of Nail Shields will do 2-3 sets of fingers or toes.,,,,,matte_silver_check.jpg,$1.50 ,$10.50 ,$15.00 ,0,1,0.27,-1,0,-1,,,036,,,-1,
373,CH07,,Blue & Red Check,Each sheet of Nail Shields will do 2-3 sets of fingers or toes.,,,,,Blue_Red_Check.jpg,$1.50 ,$10.50 ,$15.00 ,0,1,0,-1,0,-1,,,,,,-1,
374,CH08,,Red & Black Check,Each sheet of Nail Shields will do 2-3 sets of fingers or toes.,,,,,Red_Black_Check.jpg,$1.50 ,$10.50 ,$15.00 ,0,1,0.27,-1,0,-1,,,031,,,-1,
375,CH09,,Blue & Burgundy check,Each sheet of Nail Shields will do 2-3 sets of fingers or toes.,,,,,Blue_Burgundy_check.jpg,$1.50 ,$10.50 ,$15.00 ,0,1,0.27,-1,0,-1,,,031,,,-1,
376,CH10,,blue & green check,Each sheet of Nail Shields will do 2-3 sets of fingers or toes.,,,,,blue_green_check.jpg,$1.50 ,$10.50 ,$15.00 ,0,1,0.27,-1,0,-1,,,031,,,-1,
377,CL01,,clear,Each sheet of Nail Shields will do 2-3 sets of fingers or toes.,,,,,clear.jpg,$1.50 ,$10.50 ,$15.00 ,0,1,0.27,-1,0,-1,,,020,,,-1,
378,CM03,,blue camo,Each sheet of Nail Shields will do 2-3 sets of fingers or toes.,,,,,blue_camo.jpg,$1.50 ,$10.50 ,$15.00 ,0,1,0.27,-1,0,-1,,,030,,,-1,
379,CM04,,metallic camo,Each sheet of Nail Shields will do 2-3 sets of fingers or toes.,,,,,metallic_camo.jpg,$1.50 ,$10.50 ,$15.00 ,0,1,0.27,-1,0,-1,,,025,,,-1,
380,CN04,,Gray & Orange Chevron,Each sheet of Nail Shields will do 2-3 sets of fingers or toes.,,,,,Gray_Orange_Chevron.jpg,$1.50 ,$10.50 ,$15.00 ,0,1,0.27,-1,0,-1,,,024,,,-1,
381,CN05,,burgundy chevron,Each sheet of Nail Shields will do 2-3 sets of fingers or toes.,,,,,burgundy_chevron.jpg,$1.50 ,$10.50 ,$15.00 ,0,1,0.27,-1,0,-1,,,031,,,-1,
382,CN07,,mint green chevron,Each sheet of Nail Shields will do 2-3 sets of fingers or toes.,,,,,mint_green_chevron.jpg,$1.50 ,$10.50 ,$15.00 ,0,1,0.27,-1,0,-1,,,"037,024,018",,,-1,
383,CN08,,Purple Green & Black Chevron,Each sheet of Nail Shields will do 2-3 sets of fingers or toes.,,,,,Purple_Green_Black_Chevron.jpg,$1.50 ,$10.50 ,$15.00 ,0,1,0.27,-1,0,-1,,,024,,,-1,
384,CN09,,Black Chevron on Clear,Each sheet of Nail Shields will do 2-3 sets of fingers or toes.,,,,,Black_Chevron_on_Clear.jpg,$1.50 ,$10.50 ,$15.00 ,0,1,0.27,-1,0,-1,,,020,,,-1,
385,CN10,,White Chevron on Clear,Each sheet of Nail Shields will do 2-3 sets of fingers or toes.,,,,,White_Chevron_on_Clear.jpg,$1.50 ,$10.50 ,$15.00 ,0,1,0.27,-1,0,-1,,,020,,,-1,
386,CR02,,Metallic Gold & White Circles,Each sheet of Nail Shields will do 2-3 sets of fingers or toes.,,,,,Metallic_Gold_White_Circles.jpg,$1.50 ,$10.50 ,$15.00 ,0,1,0.27,-1,0,-1,,,"025,037",,,-1,
387,CS01,,cross,Each sheet of Nail Shields will do 2-3 sets of fingers or toes.,,,,,cross.jpg,$1.50 ,$10.50 ,$15.00 ,0,1,0.27,-1,0,-1,,,039,,,-1,
388,CW01,,cow,Each sheet of Nail Shields will do 2-3 sets of fingers or toes.,,,,,cow.jpg,$1.50 ,$10.50 ,$15.00 ,0,1,0.27,-1,0,-1,,,038,,,-1,
389,DM03,,southwestern diamond,Each sheet of Nail Shields will do 2-3 sets of fingers or toes.,,,,,southwestern_diamond.jpg,$1.50 ,$10.50 ,$15.00 ,0,1,0.27,-1,0,-1,,,"023,024",,,-1,
390,DM04,,aqua modern diamond,Each sheet of Nail Shields will do 2-3 sets of fingers or toes.,,,,,aqua_modern_diamond.jpg,$1.50 ,$10.50 ,$15.00 ,0,1,0.27,-1,0,-1,,,024,,,-1,
391,DM05,,blue modern diamond,Each sheet of Nail Shields will do 2-3 sets of fingers or toes.,,,,,blue_modern_diamond.jpg,$1.50 ,$10.50 ,$15.00 ,0,1,0.27,-1,0,-1,,,"024,028",,,-1,
392,DM06,,tangerine modern diamond,Each sheet of Nail Shields will do 2-3 sets of fingers or toes.,,,,,tangerine_modern_diamond.jpg,$1.50 ,$10.50 ,$15.00 ,0,1,0.27,-1,0,-1,,,024,,,-1,
393,DS02,,Red & White Diagonal Stripe,Each sheet of Nail Shields will do 2-3 sets of fingers or toes.,,,,,Red_White_Diagonal_Stripe.jpg,$1.50 ,$10.50 ,$15.00 ,0,1,0.27,-1,0,-1,,,028,,,-1,
394,DV05,,decorative purple,Each sheet of Nail Shields will do 2-3 sets of fingers or toes.,,,,,decorative_purple.jpg,$1.50 ,$10.50 ,$15.00 ,0,1,0.27,-1,0,-1,,,"037,018",,,-1,
395,DV06,,decorative  aqua,Each sheet of Nail Shields will do 2-3 sets of fingers or toes.,,,,,decorative_aqua.jpg,$1.50 ,$10.50 ,$15.00 ,0,1,0.27,-1,0,-1,,,"037,018",,,-1,
396,DV07,,Decorative Silver & White,Each sheet of Nail Shields will do 2-3 sets of fingers or toes.,,,,,Decorative_Silver_White.jpg,$1.50 ,$10.50 ,$15.00 ,0,1,0.27,-1,0,-1,,,"025,037",,,-1,
397,FE01,,neutral fern,Each sheet of Nail Shields will do 2-3 sets of fingers or toes.,,,,,neutral_fern.jpg,$1.50 ,$10.50 ,$15.00 ,0,1,0.27,-1,0,-1,,,026,,,-1,
398,FE02,,White Fern on Clear,Each sheet of Nail Shields will do 2-3 sets of fingers or toes.,,,,,White_Fern_on_Clear.jpg,$1.50 ,$10.50 ,$15.00 ,0,1,0.27,-1,0,-1,,,020,,,-1,
399,FF01,,flipflops,Each sheet of Nail Shields will do 2-3 sets of fingers or toes.,,,,,flipflops.jpg,$1.50 ,$10.50 ,$15.00 ,0,1,0.27,-1,0,-1,,,023,,,-1,
400,FL06,,Silver Floral on Magenta,Each sheet of Nail Shields will do 2-3 sets of fingers or toes.,,,,,Silver_Floral_on_Magenta.jpg,$1.50 ,$10.50 ,$15.00 ,0,1,0.27,-1,0,-1,,,025,,,-1,
401,FL07,,turquoise floral,Each sheet of Nail Shields will do 2-3 sets of fingers or toes.,,,,,turquoise_floral.jpg,$1.50 ,$10.50 ,$15.00 ,0,1,0.27,-1,0,-1,,,022,,,-1,
402,FL08,,Magenta Floral on Clear,Each sheet of Nail Shields will do 2-3 sets of fingers or toes.,,,,,Magenta_Floral_on_Clear.jpg,$1.50 ,$10.50 ,$15.00 ,0,1,0.27,-1,0,-1,,,020,,,-1,
403,FL09,,Silver Floral on Clear,Each sheet of Nail Shields will do 2-3 sets of fingers or toes.,,,,,Silver_Floral_on_Clear.jpg,$1.50 ,$10.50 ,$15.00 ,0,1,0.27,-1,0,-1,,,020,,,-1,
404,FN06,,green & gold fishnet,Each sheet of Nail Shields will do 2-3 sets of fingers or toes.,,,,,green_gold_fishnet.jpg,$1.50 ,$10.50 ,$15.00 ,0,1,0.27,-1,0,-1,,,031,,,-1,
405,FN07,,Tangerine & Gold Fishnet,Each sheet of Nail Shields will do 2-3 sets of fingers or toes.,,,,,Tangerine_Gold_Fishnet.jpg,$1.50 ,$10.50 ,$15.00 ,0,1,0.27,-1,0,-1,,,"023,025",,,-1,
406,FR01,,fireworks,Each sheet of Nail Shields will do 2-3 sets of fingers or toes.,,,,,fireworks.jpg,$1.50 ,$10.50 ,$15.00 ,0,1,0.27,-1,0,-1,,,028,,,-1,
407,FR02,,holographic fireworks,Each sheet of Nail Shields will do 2-3 sets of fingers or toes.,,,,,holographic_fireworks.jpg,$1.50 ,$10.50 ,$15.00 ,0,1,0.27,-1,0,-1,,,028,,,-1,
408,FW02,,Mulberry Flower on Tangerine,Each sheet of Nail Shields will do 2-3 sets of fingers or toes.,,,,,Mulberry_Flower_on_Tangerine.jpg,$1.50 ,$10.50 ,$15.00 ,0,1,0.27,-1,0,-1,,,"023,022",,,-1,
409,FW04,,puff flower,Each sheet of Nail Shields will do 2-3 sets of fingers or toes.,,,,,puff_flower.jpg,$1.50 ,$10.50 ,$15.00 ,0,1,0.27,-1,0,-1,,,022,,,-1,
410,FW06,,lavender magnolia,Each sheet of Nail Shields will do 2-3 sets of fingers or toes.,,,,,lavender_magnolia.jpg,$1.50 ,$10.50 ,$15.00 ,0,1,0.27,-1,0,-1,,,"037,018",,,-1,
411,FW07,,pink roses,Each sheet of Nail Shields will do 2-3 sets of fingers or toes.,,,,,pink_roses.jpg,$1.50 ,$10.50 ,$15.00 ,0,1,0.27,-1,0,-1,,,"037,018",,,-1,
412,FW08,,lavender roses,Each sheet of Nail Shields will do 2-3 sets of fingers or toes.,,,,,lavender_roses.jpg,$1.50 ,$10.50 ,$15.00 ,0,1,0.27,-1,0,-1,,,"034,018",,,-1,
413,FW09,,Taupe Vintage Rose,Each sheet of Nail Shields will do 2-3 sets of fingers or toes.,,,,,Taupe_Vintage_Rose.jpg,$1.50 ,$10.50 ,$15.00 ,0,1,0.27,-1,0,-1,,,"022,026,018",,,-1,
414,FW10,,water flower,Each sheet of Nail Shields will do 2-3 sets of fingers or toes.,,,,,water_flower.jpg,$1.50 ,$10.50 ,$15.00 ,0,1,0.27,-1,0,-1,,,"022,018",,,-1,
415,FW11,,spring flower,Each sheet of Nail Shields will do 2-3 sets of fingers or toes.,,,,,spring_flower.jpg,$1.50 ,$10.50 ,$15.00 ,0,1,0.27,-1,0,-1,,,"023,022,018",,,-1,
416,FW12,,Blue Aloha Flower,Each sheet of Nail Shields will do 2-3 sets of fingers or toes.,,,,,Blue_Aloha_Flower.jpg,$1.50 ,$10.50 ,$15.00 ,0,1,0.27,-1,0,-1,,,022,,,-1,
417,FW13,,Red Aloha Flower,Each sheet of Nail Shields will do 2-3 sets of fingers or toes.,,,,,Red_Aloha_Flower.jpg,$1.50 ,$10.50 ,$15.00 ,0,1,0.27,-1,0,-1,,,022,,,-1,
418,FW14,,Aloha Flower,Each sheet of Nail Shields will do 2-3 sets of fingers or toes.,,,,,Aloha_Flower.jpg,$1.50 ,$10.50 ,$15.00 ,0,1,0.27,-1,0,-1,,,"023,022",,,-1,
419,FW15,,Purple Primrose,Each sheet of Nail Shields will do 2-3 sets of fingers or toes.,,,,,Purple_Primrose.jpg,$1.50 ,$10.50 ,$15.00 ,0,1,0.27,-1,0,-1,,,022,,,-1,
420,FW16,,Sunflower Primrose,Each sheet of Nail Shields will do 2-3 sets of fingers or toes.,,,,,Sunflower_Primrose.jpg,$1.50 ,$10.50 ,$15.00 ,0,1,0.27,-1,0,-1,,,022,,,-1,
421,FW17,,Splatter Flower,Each sheet of Nail Shields will do 2-3 sets of fingers or toes.,,,,,Splatter_Flower.jpg,$1.50 ,$10.50 ,$15.00 ,0,1,0.27,-1,0,-1,,,022,,,-1,
422,FW18,,taupe mini rose,Each sheet of Nail Shields will do 2-3 sets of fingers or toes.,,,,,taupe_mini_rose.jpg,$1.50 ,$10.50 ,$15.00 ,0,1,0.27,-1,0,-1,,,026,,,-1,
423,FW19,,Blue Modern Flower,Each sheet of Nail Shields will do 2-3 sets of fingers or toes.,,,,,Blue_Modern_Flower.jpg,$1.50 ,$10.50 ,$15.00 ,0,1,0.27,-1,0,-1,,,"023,022",,,-1,
424,FW20,,Tangerine Modern Flower,Each sheet of Nail Shields will do 2-3 sets of fingers or toes.,,,,,Tangerine_Modern_Flower.jpg,$1.50 ,$10.50 ,$15.00 ,0,1,0.27,-1,0,-1,,,022,,,-1,
425,FW21,,Colorful Modern Flower,Each sheet of Nail Shields will do 2-3 sets of fingers or toes.,,,,,Colorful_Modern_Flower.jpg,$1.50 ,$10.50 ,$15.00 ,0,1,0.27,-1,0,-1,,,022,,,-1,
426,FW22,,Dusty Green Vintage Rose,Each sheet of Nail Shields will do 2-3 sets of fingers or toes.,,,,,Dusty_Green_Vintage_Rose.jpg,$1.50 ,$10.50 ,$15.00 ,0,1,0.27,-1,0,-1,,,"022,026",,,-1,
427,GE02,,retro blocks,Each sheet of Nail Shields will do 2-3 sets of fingers or toes.,,,,,retro_blocks.jpg,$1.50 ,$10.50 ,$15.00 ,0,1,0.27,-1,0,-1,,,024,,,-1,
428,GE03,,blue hexagon,Each sheet of Nail Shields will do 2-3 sets of fingers or toes.,,,,,blue_hexagon.jpg,$1.50 ,$10.50 ,$15.00 ,0,1,0.27,-1,0,-1,,,024,,,-1,
429,HD03,,magenta and white houndstooth,Each sheet of Nail Shields will do 2-3 sets of fingers or toes.,,,,,magenta_and_white_houndstooth.jpg,$1.50 ,$10.50 ,$15.00 ,0,1,0.27,-1,0,-1,,,030,,,-1,
430,HD04,,Red Houndstooth,Each sheet of Nail Shields will do 2-3 sets of fingers or toes.,,,,,red_and_white_houndstooth.jpg,$1.50 ,$10.50 ,$15.00 ,0,1,0.27,-1,0,-1,,,034,,,-1,
431,HO01,,horses,Each sheet of Nail Shields will do 2-3 sets of fingers or toes.,,,,,horses.jpg,$1.50 ,$10.50 ,$15.00 ,0,1,0.27,-1,0,-1,,,039,,,-1,
432,HO02,,Horseshoes,Each sheet of Nail Shields will do 2-3 sets of fingers or toes.,,,,,horse_shoes.jpg,$1.50 ,$10.50 ,$15.00 ,0,1,0.27,-1,0,-1,,,039,,,-1,
433,HS01,,Metallic Horizontal Stripe,Each sheet of Nail Shields will do 2-3 sets of fingers or toes.,,,,,Metallic_Horizontal_Stripe.jpg,$1.50 ,$10.50 ,$15.00 ,0,1,0.27,-1,0,-1,,,"025,036",,,-1,
434,HT02,,poker hearts,Each sheet of Nail Shields will do 2-3 sets of fingers or toes.,,,,,poker_hearts.jpg,$1.50 ,$10.50 ,$15.00 ,0,1,0.27,-1,0,-1,,,039,,,-1,
435,LC01,,Black & Magenta Lace,Each sheet of Nail Shields will do 2-3 sets of fingers or toes.,,,,,Black_Magenta_Lace.jpg,$1.50 ,$10.50 ,$15.00 ,0,1,0.27,-1,0,-1,,,"037,034",,,-1,
436,LC02,,Matte Gold Lace,Each sheet of Nail Shields will do 2-3 sets of fingers or toes.,,,,,Matte_Gold_Lace.jpg,$1.50 ,$10.50 ,$15.00 ,0,1,0.27,-1,0,-1,,,"037,026",,,-1,
437,LC03,,Gray & White Lace,Each sheet of Nail Shields will do 2-3 sets of fingers or toes.,,,,,Gray_White_Lace.jpg,$1.50 ,$10.50 ,$15.00 ,0,1,0.27,-1,0,-1,,,"037,026",,,-1,
438,LC04,,Black Fleur-de-lis Lace,Each sheet of Nail Shields will do 2-3 sets of fingers or toes.,,,,,Black_Fleur-de-lis_Lace.jpg,$1.50 ,$10.50 ,$15.00 ,0,1,0.27,-1,0,-1,,,"037,026",,,-1,
439,LC05,,Black & Red Fleur-de-lis Lace,Each sheet of Nail Shields will do 2-3 sets of fingers or toes.,,,,,Black_Red_Fleur-de-lis_Lace.jpg,$1.50 ,$10.50 ,$15.00 ,0,1,0.27,-1,0,-1,,,037,,,-1,
440,GE01,,Geometric ,Each sheet of Nail Shields will do 2-3 sets of fingers or toes.,,,,,geometric.jpg,$1.50 ,$10.50 ,$15.00 ,0,1,0.27,-1,0,-1,,,024,,,-1,
441,LP04,,Colorful Leopard,Each sheet of Nail Shields will do 2-3 sets of fingers or toes.,,,,,Colorful_Leopard.jpg,$1.50 ,$10.50 ,$15.00 ,0,1,0.27,-1,0,-1,,,038,,,-1,
442,MC01,,Music Notes,Each sheet of Nail Shields will do 2-3 sets of fingers or toes.,,,,,Music_Notes.jpg,$1.50 ,$10.50 ,$15.00 ,0,1,0.27,-1,0,-1,,,039,,,-1,
443,MC02,,sheet music,Each sheet of Nail Shields will do 2-3 sets of fingers or toes.,,,,,sheet_music.jpg,$1.50 ,$10.50 ,$15.00 ,0,1,0.27,-1,0,-1,,,039,,,-1,
444,NS01,,numbers,Each sheet of Nail Shields will do 2-3 sets of fingers or toes.,,,,,numbers.jpg,$1.50 ,$10.50 ,$15.00 ,0,1,0.27,-1,0,-1,,,039,,,-1,
445,PC01,,Peacock,Each sheet of Nail Shields will do 2-3 sets of fingers or toes.,,,,,Peacock.jpg,$1.50 ,$10.50 ,$15.00 ,0,1,0.27,-1,0,-1,,,038,,,-1,
446,PK07,,Red & Blue Polka,Each sheet of Nail Shields will do 2-3 sets of fingers or toes.,,,,,Red_Blue_Polka.jpg,$1.50 ,$10.50 ,$15.00 ,0,1,0.27,-1,0,-1,,,"029,028",,,-1,
447,PK09,,red polka,Each sheet of Nail Shields will do 2-3 sets of fingers or toes.,,,,,red_polka.jpg,$1.50 ,$10.50 ,$15.00 ,0,1,0.27,-1,0,-1,,,"029,028",,,-1,
448,PK10,,burgundy & gold polka,Each sheet of Nail Shields will do 2-3 sets of fingers or toes.,,,,,burgundy_gold_polka.jpg,$1.50 ,$10.50 ,$15.00 ,0,1,0.27,-1,0,-1,,,031,,,-1,
449,PK16,,magenta polka,Each sheet of Nail Shields will do 2-3 sets of fingers or toes.,,,,,magenta_polka.jpg,$1.50 ,$10.50 ,$15.00 ,0,1,0.27,-1,0,-1,,,"023,029",,,-1,
450,PL01,,Magenta and Silver Plaid,Each sheet of Nail Shields will do 2-3 sets of fingers or toes.,,,,,Magenta_and_Silver_Plaid.jpg,$1.50 ,$10.50 ,$15.00 ,0,1,0.27,-1,0,-1,,,025,,,-1,
451,PL02,,Green & Silver Plaid,Each sheet of Nail Shields will do 2-3 sets of fingers or toes.,,,,,Green_Silver_Plaid.jpg,$1.50 ,$10.50 ,$15.00 ,0,1,0.27,-1,0,-1,,,025,,,-1,
452,PL06,,Turquoise Plaid,Each sheet of Nail Shields will do 2-3 sets of fingers or toes.,,,,,Turquoise_Plaid.jpg,$1.50 ,$10.50 ,$15.00 ,0,1,0.27,-1,0,-1,,,030,,,-1,
453,PL07,,Aqua Plaid,Each sheet of Nail Shields will do 2-3 sets of fingers or toes.,,,,,Aqua_Plaid.jpg,$1.50 ,$10.50 ,$15.00 ,0,1,0.27,-1,0,-1,,,030,,,-1,
454,PL08,,city plaid,Each sheet of Nail Shields will do 2-3 sets of fingers or toes.,,,,,city_plaid.jpg,$1.50 ,$10.50 ,$15.00 ,0,1,0.27,-1,0,-1,,,026,,,-1,
455,PL09,,Gray Plaid,Each sheet of Nail Shields will do 2-3 sets of fingers or toes.,,,,,Gray_Plaid.jpg,$1.50 ,$10.50 ,$15.00 ,0,1,0.27,-1,0,-1,,,026,,,-1,
456,PP01,,paw prints,Each sheet of Nail Shields will do 2-3 sets of fingers or toes.,,,,,paw_prints.jpg,$1.50 ,$10.50 ,$15.00 ,0,1,0.27,-1,0,-1,,,039,,,-1,
457,PS01,,Gray Paisley,Each sheet of Nail Shields will do 2-3 sets of fingers or toes.,,,,,Gray_Paisley.jpg,$1.50 ,$10.50 ,$15.00 ,0,1,0.27,-1,0,-1,,,"034,026",,,-1,
458,PS05,,Neutral Paisley,Each sheet of Nail Shields will do 2-3 sets of fingers or toes.,,,,,Neutral_Paisley.jpg,$1.50 ,$10.50 ,$15.00 ,0,1,0.27,-1,0,-1,,,026,,,-1,
459,PS06,,Exotic Paisley,Each sheet of Nail Shields will do 2-3 sets of fingers or toes.,,,,,Exotic_Paisley.jpg,$1.50 ,$10.50 ,$15.00 ,0,1,0.27,-1,0,-1,,,023,,,-1,
460,PT01,,paint splatter,Each sheet of Nail Shields will do 2-3 sets of fingers or toes.,,,,,paint_splatter.jpg,$1.50 ,$10.50 ,$15.00 ,0,1,0.27,-1,0,-1,,,023,,,-1,
461,PW02,,pink & purple pinwheel,Each sheet of Nail Shields will do 2-3 sets of fingers or toes.,,,,,pink_purple_pinwheel.jpg,$1.50 ,$10.50 ,$15.00 ,0,1,0.27,-1,0,-1,,,"037,018",,,-1,
462,PW03,,summer pinwheel,Each sheet of Nail Shields will do 2-3 sets of fingers or toes.,,,,,summer_pinwheel.jpg,$1.50 ,$10.50 ,$15.00 ,0,1,0.27,-1,0,-1,,,023,,,-1,
463,PW04,,patriotic pinwheel,Each sheet of Nail Shields will do 2-3 sets of fingers or toes.,,,,,patriotic_pinwheel.jpg,$1.50 ,$10.50 ,$15.00 ,0,1,0.27,-1,0,-1,,,028,,,-1,
464,PW05,,metallic pinwheel,Each sheet of Nail Shields will do 2-3 sets of fingers or toes.,,,,,metallic_pinwheel.jpg,$1.50 ,$10.50 ,$15.00 ,0,1,0.27,-1,0,-1,,,025,,,-1,
465,RW01,,blue rainbow,Each sheet of Nail Shields will do 2-3 sets of fingers or toes.,,,,,blue_rainbow.jpg,$1.50 ,$10.50 ,$15.00 ,0,1,0.27,-1,0,-1,,,024,,,-1,
466,RE01,,christian fish,Each sheet of Nail Shields will do 2-3 sets of fingers or toes.,,,,,christian_fish.jpg,$1.50 ,$10.50 ,$15.00 ,0,1,0.27,-1,0,-1,,,"039,018",,,-1,
467,RE02,,star of david,Each sheet of Nail Shields will do 2-3 sets of fingers or toes.,,,,,star_of_david.jpg,$1.50 ,$10.50 ,$15.00 ,0,1,0.27,-1,0,-1,,,039,,,-1,
468,SD17,,Matte Gold,Each sheet of Nail Shields will do 2-3 sets of fingers or toes.,,,,,Matte_Gold.jpg,$1.50 ,$10.50 ,$15.00 ,0,1,0.27,-1,0,-1,,,"026,033",,,-1,
469,SD18,,matte silver,Each sheet of Nail Shields will do 2-3 sets of fingers or toes.,,,,,matte_silver.jpg,$1.50 ,$10.50 ,$15.00 ,0,1,0.27,-1,0,-1,,,033,,,-1,
470,SD19,,Mint Green,Each sheet of Nail Shields will do 2-3 sets of fingers or toes.,,,,,Mint_Green.jpg,$1.50 ,$10.50 ,$15.00 ,0,1,0.27,-1,0,-1,,,033,,,-1,
471,SD20,,Dark Lavender,Each sheet of Nail Shields will do 2-3 sets of fingers or toes.,,,,,Dark_Lavender.jpg,$1.50 ,$10.50 ,$15.00 ,0,1,0.27,-1,0,-1,,,033,,,0,
472,SD21,,blue gray,Each sheet of Nail Shields will do 2-3 sets of fingers or toes.,,,,,blue_gray.jpg,$1.50 ,$10.50 ,$15.00 ,0,1,0.27,-1,0,-1,,,033,,,-1,
473,SD22,,neutral,Each sheet of Nail Shields will do 2-3 sets of fingers or toes.,,,,,neutral.jpg,$1.50 ,$10.50 ,$15.00 ,0,1,0.27,-1,0,-1,,,033,,,-1,
474,SE01,,Dark Green Sparkle,Each sheet of Nail Shields will do 2-3 sets of fingers or toes.,,,,,Dark_Green_Sparkle.jpg,$1.50 ,$10.50 ,$15.00 ,0,1,0.27,-1,0,-1,,,035,,,-1,
475,SE02,,Gold Sparkle,Each sheet of Nail Shields will do 2-3 sets of fingers or toes.,,,,,Gold_Sparkle.jpg,$1.50 ,$10.50 ,$15.00 ,0,1,0.27,-1,0,-1,,,035,,,-1,
476,SE03,,Lavender Sparkle,Each sheet of Nail Shields will do 2-3 sets of fingers or toes.,,,,,Lavender_Sparkle.jpg,$1.50 ,$10.50 ,$15.00 ,0,1,0.27,-1,0,-1,,,035,,,-1,
477,SE04,,Onyx Sparkle,Each sheet of Nail Shields will do 2-3 sets of fingers or toes.,,,,,Onyx_Sparkle.jpg,$1.50 ,$10.50 ,$15.00 ,0,1,0.27,-1,0,-1,,,035,,,-1,
478,SE05,,Rasberry Sparkle,Each sheet of Nail Shields will do 2-3 sets of fingers or toes.,,,,,Rasberry_Sparkle.jpg,$1.50 ,$10.50 ,$15.00 ,0,1,0.27,-1,0,-1,,,035,,,-1,
479,SE06,,Red Sparkle,Each sheet of Nail Shields will do 2-3 sets of fingers or toes.,,,,,Red_Sparkle.jpg,$1.50 ,$10.50 ,$15.00 ,0,1,0.27,-1,0,-1,,,035,,,-1,
480,SE07,,Sapphire Blue Sparkle,Each sheet of Nail Shields will do 2-3 sets of fingers or toes.,,,,,Sapphire_Blue_Sparkle.jpg,$1.50 ,$10.50 ,$15.00 ,0,1,0.27,-1,0,-1,,,035,,,-1,
481,SE08,,Diamond Dust Sparkle,Each sheet of Nail Shields will do 2-3 sets of fingers or toes.,,,,,Diamond_Dust_Sparkle.jpg,$1.50 ,$10.50 ,$15.00 ,0,1,0.27,-1,0,-1,,,035,,,-1,
482,SE09,,Teal Sparkle,Each sheet of Nail Shields will do 2-3 sets of fingers or toes.,,,,,Teal_Sparkle.jpg,$1.50 ,$10.50 ,$15.00 ,0,1,0.27,-1,0,-1,,,035,,,-1,
483,SF01,,smiley face,Each sheet of Nail Shields will do 2-3 sets of fingers or toes.,,,,,smiley_face.jpg,$1.50 ,$10.50 ,$15.00 ,0,1,0.27,-1,0,-1,,,039,,,-1,
484,SL01,,Blue & Red Fish,Each sheet of Nail Shields will do 2-3 sets of fingers or toes.,,,,,red_blue_fish.jpg,$1.50 ,$10.50 ,$15.00 ,0,1,0.27,-1,0,-1,,,039,,,-1,
485,SL02,,turtles,Each sheet of Nail Shields will do 2-3 sets of fingers or toes.,,,,,turtles.jpg,$1.50 ,$10.50 ,$15.00 ,0,1,0.27,-1,0,-1,,,023,,,-1,
486,SK03,,skulls & hearts,Each sheet of Nail Shields will do 2-3 sets of fingers or toes.,,,,,skulls_hearts.jpg,$1.50 ,$10.50 ,$15.00 ,0,1,0.27,-1,0,-1,,,030,,,-1,
487,SK04,,skulls & checks,Each sheet of Nail Shields will do 2-3 sets of fingers or toes.,,,,,skulls_checks.jpg,$1.50 ,$10.50 ,$15.00 ,0,1,0.27,-1,0,-1,,,030,,,-1,
488,SS01,,snakeskin,Each sheet of Nail Shields will do 2-3 sets of fingers or toes.,,,,,snakeskin.jpg,$1.50 ,$10.50 ,$15.00 ,0,1,0.27,-1,0,-1,,,038,,,-1,
489,SP01,,baseball,Each sheet of Nail Shields will do 2-3 sets of fingers or toes.,,,,,baseball.jpg,$1.50 ,$10.50 ,$15.00 ,0,1,0.27,-1,0,-1,,,039,,,-1,
490,SP02,,basketball,Each sheet of Nail Shields will do 2-3 sets of fingers or toes.,,,,,basketball.jpg,$1.50 ,$10.50 ,$15.00 ,0,1,0.27,-1,0,-1,,,039,,,-1,
491,SP03,,football,Each sheet of Nail Shields will do 2-3 sets of fingers or toes.,,,,,football.jpg,$1.50 ,$10.50 ,$15.00 ,0,1,0.27,-1,0,-1,,,039,,,-1,
492,SP04,,soccer,Each sheet of Nail Shields will do 2-3 sets of fingers or toes.,,,,,soccer.jpg,$1.50 ,$10.50 ,$15.00 ,0,1,0.27,-1,0,-1,,,039,,,-1,
493,ST06,,Green & Pink Stars,Each sheet of Nail Shields will do 2-3 sets of fingers or toes.,,,,,Green_Pink_Stars.jpg,$1.50 ,$10.50 ,$15.00 ,0,1,0.27,-1,0,-1,,,030,,,-1,
494,ST07,,Stars and Stripes,Each sheet of Nail Shields will do 2-3 sets of fingers or toes.,,,,,stars_and_strips.jpg,$1.50 ,$10.50 ,$15.00 ,0,1,0.27,-1,0,-1,,,028,,,-1,
495,ST08,,patriotic stars,Each sheet of Nail Shields will do 2-3 sets of fingers or toes.,,,,,patriotic_stars.jpg,$1.50 ,$10.50 ,$15.00 ,0,1,0.27,-1,0,-1,,,028,,,-1,
496,SR01,,Spider Web,Each sheet of Nail Shields will do 2-3 sets of fingers or toes.,,,,,Spider_Web.jpg,$1.50 ,$10.50 ,$15.00 ,0,1,0.27,-1,0,-1,,,019,,,-1,
497,SW03,,Black & White swirls,Each sheet of Nail Shields will do 2-3 sets of fingers or toes.,,,,,Black_White_swirls.jpg,$1.50 ,$10.50 ,$15.00 ,0,1,0.27,-1,0,-1,,,019,,,-1,
498,SW02,,Pink & Purple Swirls,Each sheet of Nail Shields will do 2-3 sets of fingers or toes.,,,,,Pink_Purple_Swirls.jpg,$1.50 ,$10.50 ,$15.00 ,0,1,0.27,-1,0,-1,,,"024,018",,,-1,
499,SW04,,Purple & Turquoise Swirls,Each sheet of Nail Shields will do 2-3 sets of fingers or toes.,,,,,Purple_Turquoise_Swirls.jpg,$1.50 ,$10.50 ,$15.00 ,0,1,0.27,-1,0,-1,,,030,,,-1,
500,TG01,,orange tiger,Each sheet of Nail Shields will do 2-3 sets of fingers or toes.,,,,,orange_tiger.jpg,$1.50 ,$10.50 ,$15.00 ,0,1,0.27,-1,0,-1,,,038,,,-1,
501,TG02,,yellow tiger,Each sheet of Nail Shields will do 2-3 sets of fingers or toes.,,,,,yellow_tiger.jpg,$1.50 ,$10.50 ,$15.00 ,0,1,0.27,-1,0,-1,,,038,,,-1,
502,VG05,,red vintage cross stitch,Each sheet of Nail Shields will do 2-3 sets of fingers or toes.,,,,,red_vintage_cross_stitch.jpg,$1.50 ,$10.50 ,$15.00 ,0,1,0.27,-1,0,-1,,,024,,,-1,
503,VG06,,Yellow Vintage Cross Stitch,Each sheet of Nail Shields will do 2-3 sets of fingers or toes.,,,,,Yellow_Vintage_Cross_Stitch.jpg,$1.50 ,$10.50 ,$15.00 ,0,1,0.27,-1,0,-1,,,024,,,-1,
504,WS01,,metallic Whimsical swirl,Each sheet of Nail Shields will do 2-3 sets of fingers or toes.,,,,,metallic_Whimsical_swirl.jpg,$1.50 ,$10.50 ,$15.00 ,0,1,0.27,-1,0,-1,,,025,,,-1,
505,WS02,,bright whimsical swirl,Each sheet of Nail Shields will do 2-3 sets of fingers or toes.,,,,,bright_whimsical_swirl.jpg,$1.50 ,$10.50 ,$15.00 ,0,1,0.27,-1,0,-1,,,023,,,-1,
506,WS03,,patriotic Whimsical swirl,Each sheet of Nail Shields will do 2-3 sets of fingers or toes.,,,,,patriotic_Whimsical_swirl.jpg,$1.50 ,$10.50 ,$15.00 ,0,1,0.27,-1,0,-1,,,028,,,-1,
507,WS04,,purple & gold whimsical swirl,Each sheet of Nail Shields will do 2-3 sets of fingers or toes.,,,,,purple_gold_whimsical_swirl.jpg,$1.50 ,$10.50 ,$15.00 ,0,1,0.27,-1,0,-1,,,031,,,-1,
508,HS12,,Blue & Gold Horizontal Stripe,Each sheet of Nail Shields will do 2-3 sets of fingers or toes.,,,,,BlueGoldHorizStripe.jpg,$1.50 ,$10.50 ,$15.00 ,0,1,0.27,-1,0,-1,,,031,,,-1,
509,HS03,,Green & Yellow Horizontal Stripe,Each sheet of Nail Shields will do 2-3 sets of fingers or toes.,,,,,GreenYellowHorizStripe.jpg,$1.50 ,$10.50 ,$15.00 ,0,1,0.27,-1,0,-1,,,031,,,-1,
510,SD20,,Dusty Purple,Each sheet of Nail Shields will do 2-3 sets of fingers or toes.,,,,,DustyPurple.jpg,$1.50 ,$10.50 ,$15.00 ,0,1,0.27,-1,0,-1,,,033,,SD12,-1,
513,NC01,,Jamberry Nail Care Healing Oil,"Introducing Nail Care Healing Oil from Jamberry Nails. Nowy ou can get the best looking and healthiest nails. Nail Care Healing Oil is an essential part of your daily regimen to maintain strong healthy nails. It penetrates deep into the nail bed and hydrates, protects and conditions your nails and cuticles while wearing your Jamberry Nail Shields. If applied twice daily, Nail Care Healing Oil will prevent and treat dry and brittle nails, turningthem into longer, stronger andhealthier nails. As part of your nail shields application we recommend daily use of Nail Care Healing Oil.<br><br>1/2oz for $10",,,,,CuticleOil.jpg,$1.90 ,$7.00 ,$10.00 ,7,1,2.1,-1,0,-1,,,040,,,-1,
514,AW99,,Pay it Forward Bracelet (free),Free with purchase of Pay it Forward nail shields,,,,,,$0.00 ,$0.00 ,$0.00 ,0,1,0,-1,0,0,,,,,,0,
