[
  {
    "pk": 1, 
    "model": "events.eventphoto", 
    "fields": {
      "is_enabled": true, 
      "photo": "events/photos/mother-daughter-postcard3.jpg", 
      "name": "Mother Daughter Postcard"
    }
  }, 
  {
    "pk": 2, 
    "model": "events.eventphoto", 
    "fields": {
      "is_enabled": true, 
      "photo": "events/photos/mother-daughter-postcard7.jpg", 
      "name": "Mother Daughter Postcard"
    }
  }, 
  {
    "pk": 3, 
    "model": "events.eventphoto", 
    "fields": {
      "is_enabled": true, 
      "photo": "events/photos/mani-pedi-postcard.jpg", 
      "name": "Mani Pedi Postcard"
    }
  }, 
  {
    "pk": 4, 
    "model": "events.eventphoto", 
    "fields": {
      "is_enabled": true, 
      "photo": "events/photos/fund-postcard.jpg", 
      "name": "Fund Postcard"
    }
  }
]